# --> Including file '/workspace/build/LHCB/LHCB_HEAD/Ex/IOExample/tests/options/CopyReco12Stripping17toROOTmdst.py'
# <-- End of file '/workspace/build/LHCB/LHCB_HEAD/Ex/IOExample/tests/options/CopyReco12Stripping17toROOTmdst.py'
# applying configuration of RawEventFormatConf
# /***** User RawEventFormatConf/RawEventFormatConf **************************************************
# |-RecoDict               = {'Stripping17': 1.0, 'Reco12': 1.0, 'Reco14': 2.0, 'Reco15': 4.2, 'LHCb': 0.1, 'Reconstruction12': 1.0, 'Hlt': 0.1, 'S17': 1.0, 'R14': 2.0, 'Reconstruction14': 2.0, 'Boole': 0.0, 'S20': 2.0, 'S21': 4.0, 'Stripping20': 2.0, 'Moore': 0.3, 'L0': 0.0, 'R12': 1.0, 'Strip20': 2.0, 'Pit': 0.1, 'Strip17': 1.0}
# |                        (default: None)
# |-Locations              = {0.0: {'HltSelReports': 'DAQ/RawEvent', 'OTError': 'DAQ/RawEvent', 'VeloError': 'DAQ/RawEvent', 'UTFull': 'DAQ/RawEvent', 'UTPedestal': 'DAQ/RawEvent', 'PrsTrig': 'DAQ/RawEvent', 'HcalPackedError': 'DAQ/RawEvent', 'L0PUFull': 'DAQ/RawEvent', 'HltDecReports': 'DAQ/RawEvent', 'Rich': 'DAQ/RawEvent', 'VeloProcFull': 'DAQ/RawEvent', 'HltRoutingBits': 'DAQ/RawEvent', 'L0MuonError': 'DAQ/RawEvent', 'VL': 'DAQ/RawEvent', 'L0MuonProcCand': 'DAQ/RawEvent', 'TTPedestal': 'DAQ/RawEvent', 'L0DUError': 'DAQ/RawEvent', 'DstBank': 'DAQ/RawEvent', 'TT': 'DAQ/RawEvent', 'L0MuonProcData': 'DAQ/RawEvent', 'OTRaw': 'DAQ/RawEvent', 'EcalPacked': 'DAQ/RawEvent', 'PrsPacked': 'DAQ/RawEvent', 'VeloPedestal': 'DAQ/RawEvent', 'DAQ': 'DAQ/RawEvent', 'ITError': 'DAQ/RawEvent', 'FileID': 'DAQ/RawEvent', 'EcalTrig': 'DAQ/RawEvent', 'FTCluster': 'DAQ/RawEvent', 'L0PUError': 'DAQ/RawEvent', 'L0Calo': 'DAQ/RawEvent', 'VeloFull': 'DAQ/RawEvent', 'L0MuonCtrlAll': 'DAQ/RawEvent', 'HltVertexReports': 'DAQ/RawEvent', 'EcalE': 'DAQ/RawEvent', 'ITProcFull': 'DAQ/RawEvent', 'HltLumiSummary': 'DAQ/RawEvent', 'TestDet': 'DAQ/RawEvent', 'IT': 'DAQ/RawEvent', 'VP': 'DAQ/RawEvent', 'HcalTrig': 'DAQ/RawEvent', 'HcalE': 'DAQ/RawEvent', 'L0PU': 'DAQ/RawEvent', 'DstAddress': 'DAQ/RawEvent', 'UT': 'DAQ/RawEvent', 'TAEHeader': 'DAQ/RawEvent', 'ODIN': 'DAQ/RawEvent', 'PrsE': 'DAQ/RawEvent', 'PrsPackedError': 'DAQ/RawEvent', 'Velo': 'DAQ/RawEvent', 'Muon': 'DAQ/RawEvent', 'ITPedestal': 'DAQ/RawEvent', 'TTProcFull': 'DAQ/RawEvent', 'DstData': 'DAQ/RawEvent', 'GaudiSerialize': 'DAQ/RawEvent', 'TTFull': 'DAQ/RawEvent', 'L0MuonRaw': 'DAQ/RawEvent', 'UTError': 'DAQ/RawEvent', 'TTError': 'DAQ/RawEvent', 'EcalPackedError': 'DAQ/RawEvent', 'HcalPacked': 'DAQ/RawEvent', 'MuonFull': 'DAQ/RawEvent', 'L0CaloError': 'DAQ/RawEvent', 'GaudiHeader': 'DAQ/RawEvent', 'L0DU': 'DAQ/RawEvent', 'ITFull': 'DAQ/RawEvent', 'OT': 'DAQ/RawEvent', 'MuonError': 'DAQ/RawEvent', 'L0CaloFull': 'DAQ/RawEvent', 'L0Muon': 'DAQ/RawEvent'}, 1.0: {'HltSelReports': ['Trigger/RawEvent', 'DAQ/RawEvent'], 'OTError': 'DAQ/RawEvent', 'VeloError': 'DAQ/RawEvent', 'UTFull': 'DAQ/RawEvent', 'UTPedestal': 'DAQ/RawEvent', 'PrsTrig': 'DAQ/RawEvent', 'HcalPackedError': 'DAQ/RawEvent', 'L0PUFull': 'DAQ/RawEvent', 'HltDecReports': ['Trigger/RawEvent', 'DAQ/RawEvent'], 'Rich': 'DAQ/RawEvent', 'VeloProcFull': 'DAQ/RawEvent', 'HltRoutingBits': ['Trigger/RawEvent', 'DAQ/RawEvent'], 'L0MuonError': 'DAQ/RawEvent', 'VL': 'DAQ/RawEvent', 'L0MuonProcCand': ['Trigger/RawEvent', 'DAQ/RawEvent'], 'TTPedestal': 'DAQ/RawEvent', 'L0DUError': 'DAQ/RawEvent', 'DstBank': 'DAQ/RawEvent', 'TT': 'DAQ/RawEvent', 'L0MuonProcData': 'DAQ/RawEvent', 'OTRaw': 'DAQ/RawEvent', 'EcalPacked': 'DAQ/RawEvent', 'PrsPacked': 'DAQ/RawEvent', 'VeloPedestal': 'DAQ/RawEvent', 'DAQ': 'DAQ/RawEvent', 'ITError': 'DAQ/RawEvent', 'FileID': 'DAQ/RawEvent', 'EcalTrig': 'DAQ/RawEvent', 'FTCluster': 'DAQ/RawEvent', 'L0PUError': 'DAQ/RawEvent', 'L0Calo': ['Trigger/RawEvent', 'DAQ/RawEvent'], 'VeloFull': 'DAQ/RawEvent', 'L0MuonCtrlAll': 'DAQ/RawEvent', 'HltVertexReports': ['Trigger/RawEvent', 'DAQ/RawEvent'], 'EcalE': 'DAQ/RawEvent', 'ITProcFull': 'DAQ/RawEvent', 'HltLumiSummary': 'DAQ/RawEvent', 'TestDet': 'DAQ/RawEvent', 'IT': 'DAQ/RawEvent', 'VP': 'DAQ/RawEvent', 'HcalTrig': 'DAQ/RawEvent', 'HcalE': 'DAQ/RawEvent', 'L0PU': ['Trigger/RawEvent', 'DAQ/RawEvent'], 'DstAddress': 'DAQ/RawEvent', 'UT': 'DAQ/RawEvent', 'TAEHeader': 'DAQ/RawEvent', 'ODIN': ['Trigger/RawEvent', 'DAQ/RawEvent'], 'PrsE': 'DAQ/RawEvent', 'PrsPackedError': 'DAQ/RawEvent', 'Velo': 'DAQ/RawEvent', 'Muon': 'DAQ/RawEvent', 'ITPedestal': 'DAQ/RawEvent', 'TTProcFull': 'DAQ/RawEvent', 'DstData': 'DAQ/RawEvent', 'GaudiSerialize': 'DAQ/RawEvent', 'TTFull': 'DAQ/RawEvent', 'L0MuonRaw': 'DAQ/RawEvent', 'UTError': 'DAQ/RawEvent', 'TTError': 'DAQ/RawEvent', 'EcalPackedError': 'DAQ/RawEvent', 'HcalPacked': 'DAQ/RawEvent', 'MuonFull': 'DAQ/RawEvent', 'L0CaloError': 'DAQ/RawEvent', 'GaudiHeader': 'DAQ/RawEvent', 'L0DU': ['Trigger/RawEvent', 'DAQ/RawEvent'], 'ITFull': 'DAQ/RawEvent', 'OT': 'DAQ/RawEvent', 'MuonError': 'DAQ/RawEvent', 'L0CaloFull': ['Trigger/RawEvent', 'DAQ/RawEvent'], 'L0Muon': ['Trigger/RawEvent', 'DAQ/RawEvent']}, 2.0: {'HltSelReports': 'Trigger/RawEvent', 'OTError': 'Other/RawEvent', 'VeloError': 'Other/RawEvent', 'UTFull': 'Other/RawEvent', 'UTPedestal': 'Other/RawEvent', 'PrsTrig': 'Calo/RawEvent', 'HcalPackedError': 'Calo/RawEvent', 'L0PUFull': 'Other/RawEvent', 'HltDecReports': 'Trigger/RawEvent', 'Rich': 'Rich/RawEvent', 'VeloProcFull': 'Other/RawEvent', 'HltRoutingBits': 'Trigger/RawEvent', 'L0MuonError': 'Other/RawEvent', 'VL': 'Other/RawEvent', 'L0MuonProcCand': 'Trigger/RawEvent', 'TTPedestal': 'Other/RawEvent', 'L0DUError': 'Other/RawEvent', 'DstBank': 'Other/RawEvent', 'TT': 'Other/RawEvent', 'L0MuonProcData': 'Other/RawEvent', 'OTRaw': 'Other/RawEvent', 'EcalPacked': 'Calo/RawEvent', 'PrsPacked': 'Calo/RawEvent', 'VeloPedestal': 'Other/RawEvent', 'DAQ': 'Other/RawEvent', 'ITError': 'Other/RawEvent', 'FileID': 'Other/RawEvent', 'EcalTrig': 'Calo/RawEvent', 'FTCluster': 'Other/RawEvent', 'L0PUError': 'Other/RawEvent', 'L0Calo': 'Trigger/RawEvent', 'VeloFull': 'Other/RawEvent', 'L0MuonCtrlAll': 'Other/RawEvent', 'HltVertexReports': 'Trigger/RawEvent', 'EcalE': 'Calo/RawEvent', 'ITProcFull': 'Other/RawEvent', 'HltLumiSummary': 'Other/RawEvent', 'TestDet': 'Other/RawEvent', 'IT': 'Other/RawEvent', 'VP': 'Other/RawEvent', 'HcalTrig': 'Calo/RawEvent', 'HcalE': 'Calo/RawEvent', 'L0PU': 'Trigger/RawEvent', 'DstAddress': 'Other/RawEvent', 'UT': 'Other/RawEvent', 'TAEHeader': 'Other/RawEvent', 'ODIN': 'Trigger/RawEvent', 'PrsE': 'Calo/RawEvent', 'PrsPackedError': 'Calo/RawEvent', 'Velo': 'Other/RawEvent', 'Muon': 'Muon/RawEvent', 'ITPedestal': 'Other/RawEvent', 'TTProcFull': 'Other/RawEvent', 'DstData': 'Other/RawEvent', 'GaudiSerialize': 'Other/RawEvent', 'TTFull': 'Other/RawEvent', 'L0MuonRaw': 'Other/RawEvent', 'UTError': 'Other/RawEvent', 'TTError': 'Other/RawEvent', 'EcalPackedError': 'Calo/RawEvent', 'HcalPacked': 'Calo/RawEvent', 'MuonFull': 'Other/RawEvent', 'L0CaloError': 'Other/RawEvent', 'GaudiHeader': 'Other/RawEvent', 'L0DU': 'Trigger/RawEvent', 'ITFull': 'Other/RawEvent', 'OT': 'Other/RawEvent', 'MuonError': 'Other/RawEvent', 'L0CaloFull': 'Trigger/RawEvent', 'L0Muon': 'Trigger/RawEvent'}, 3.0: {'HltSelReports': 'Trigger/#TCK#/RawEvent', 'OTError': 'DAQ/RawEvent', 'VeloError': 'DAQ/RawEvent', 'UTFull': 'DAQ/RawEvent', 'UTPedestal': 'DAQ/RawEvent', 'PrsTrig': 'DAQ/RawEvent', 'HcalPackedError': 'DAQ/RawEvent', 'L0PUFull': 'DAQ/RawEvent', 'HltDecReports': 'Trigger/#TCK#/RawEvent', 'Rich': 'DAQ/RawEvent', 'VeloProcFull': 'DAQ/RawEvent', 'HltRoutingBits': 'Trigger/#TCK#/RawEvent', 'L0MuonError': 'DAQ/RawEvent', 'VL': 'DAQ/RawEvent', 'L0MuonProcCand': 'Trigger/#TCK#/RawEvent', 'TTPedestal': 'DAQ/RawEvent', 'L0DUError': 'DAQ/RawEvent', 'DstBank': 'DAQ/RawEvent', 'TT': 'DAQ/RawEvent', 'L0MuonProcData': 'DAQ/RawEvent', 'OTRaw': 'DAQ/RawEvent', 'EcalPacked': 'DAQ/RawEvent', 'PrsPacked': 'DAQ/RawEvent', 'VeloPedestal': 'DAQ/RawEvent', 'DAQ': 'DAQ/RawEvent', 'ITError': 'DAQ/RawEvent', 'FileID': 'DAQ/RawEvent', 'EcalTrig': 'DAQ/RawEvent', 'FTCluster': 'DAQ/RawEvent', 'L0PUError': 'DAQ/RawEvent', 'L0Calo': 'Trigger/#TCK#/RawEvent', 'VeloFull': 'DAQ/RawEvent', 'L0MuonCtrlAll': 'DAQ/RawEvent', 'HltVertexReports': 'Trigger/#TCK#/RawEvent', 'EcalE': 'DAQ/RawEvent', 'ITProcFull': 'DAQ/RawEvent', 'HltLumiSummary': 'DAQ/RawEvent', 'TestDet': 'DAQ/RawEvent', 'IT': 'DAQ/RawEvent', 'VP': 'DAQ/RawEvent', 'HcalTrig': 'DAQ/RawEvent', 'HcalE': 'DAQ/RawEvent', 'L0PU': 'Trigger/#TCK#/RawEvent', 'DstAddress': 'DAQ/RawEvent', 'UT': 'DAQ/RawEvent', 'TAEHeader': 'DAQ/RawEvent', 'ODIN': 'DAQ/RawEvent', 'PrsE': 'DAQ/RawEvent', 'PrsPackedError': 'DAQ/RawEvent', 'Velo': 'DAQ/RawEvent', 'Muon': 'DAQ/RawEvent', 'ITPedestal': 'DAQ/RawEvent', 'TTProcFull': 'DAQ/RawEvent', 'DstData': 'DAQ/RawEvent', 'GaudiSerialize': 'DAQ/RawEvent', 'TTFull': 'DAQ/RawEvent', 'L0MuonRaw': 'DAQ/RawEvent', 'UTError': 'DAQ/RawEvent', 'TTError': 'DAQ/RawEvent', 'EcalPackedError': 'DAQ/RawEvent', 'HcalPacked': 'DAQ/RawEvent', 'MuonFull': 'DAQ/RawEvent', 'L0CaloError': 'DAQ/RawEvent', 'GaudiHeader': 'DAQ/RawEvent', 'L0DU': 'Trigger/#TCK#/RawEvent', 'ITFull': 'DAQ/RawEvent', 'OT': 'DAQ/RawEvent', 'MuonError': 'DAQ/RawEvent', 'L0CaloFull': 'Trigger/#TCK#/RawEvent', 'L0Muon': 'Trigger/#TCK#/RawEvent'}, 4.0: {'HltSelReports': 'Trigger/RawEvent', 'OTError': 'Unstripped/RawEvent', 'VeloError': 'Unstripped/RawEvent', 'UTFull': 'Unstripped/RawEvent', 'UTPedestal': 'Unstripped/RawEvent', 'PrsTrig': 'Calo/RawEvent', 'HcalPackedError': 'Unstripped/RawEvent', 'L0PUFull': 'Unstripped/RawEvent', 'HltDecReports': 'Trigger/RawEvent', 'Rich': 'Rich/RawEvent', 'VeloProcFull': 'Unstripped/RawEvent', 'HltRoutingBits': 'Trigger/RawEvent', 'L0MuonError': 'Unstripped/RawEvent', 'VL': 'Unstripped/RawEvent', 'L0MuonProcCand': 'Trigger/RawEvent', 'TTPedestal': 'Unstripped/RawEvent', 'L0DUError': 'Unstripped/RawEvent', 'DstBank': 'Unstripped/RawEvent', 'TT': 'Tracker/RawEvent', 'L0MuonProcData': 'Unstripped/RawEvent', 'OTRaw': 'Unstripped/RawEvent', 'EcalPacked': 'Calo/RawEvent', 'PrsPacked': 'Calo/RawEvent', 'VeloPedestal': 'Unstripped/RawEvent', 'DAQ': 'Unstripped/RawEvent', 'ITError': 'Unstripped/RawEvent', 'FileID': 'Unstripped/RawEvent', 'EcalTrig': 'Calo/RawEvent', 'FTCluster': 'Tracker/RawEvent', 'L0PUError': 'Unstripped/RawEvent', 'L0Calo': 'Trigger/RawEvent', 'VeloFull': 'Unstripped/RawEvent', 'L0MuonCtrlAll': 'Unstripped/RawEvent', 'HltVertexReports': 'Trigger/RawEvent', 'EcalE': 'Calo/RawEvent', 'ITProcFull': 'Unstripped/RawEvent', 'HltLumiSummary': 'Unstripped/RawEvent', 'TestDet': 'Unstripped/RawEvent', 'IT': 'Tracker/RawEvent', 'VP': 'Velo/RawEvent', 'HcalTrig': 'Calo/RawEvent', 'HcalE': 'Calo/RawEvent', 'L0PU': 'Trigger/RawEvent', 'DstAddress': 'Unstripped/RawEvent', 'UT': 'Tracker/RawEvent', 'TAEHeader': 'Unstripped/RawEvent', 'ODIN': ['Trigger/RawEvent'], 'PrsE': 'Calo/RawEvent', 'PrsPackedError': 'Unstripped/RawEvent', 'Velo': 'Velo/RawEvent', 'Muon': 'Muon/RawEvent', 'ITPedestal': 'Unstripped/RawEvent', 'TTProcFull': 'Unstripped/RawEvent', 'DstData': 'Unstripped/RawEvent', 'GaudiSerialize': 'Unstripped/RawEvent', 'TTFull': 'Unstripped/RawEvent', 'L0MuonRaw': 'Unstripped/RawEvent', 'UTError': 'Unstripped/RawEvent', 'TTError': 'Unstripped/RawEvent', 'EcalPackedError': 'Unstripped/RawEvent', 'HcalPacked': 'Calo/RawEvent', 'MuonFull': 'Unstripped/RawEvent', 'L0CaloError': 'Unstripped/RawEvent', 'GaudiHeader': 'Unstripped/RawEvent', 'L0DU': 'Trigger/RawEvent', 'ITFull': 'Unstripped/RawEvent', 'OT': 'Tracker/RawEvent', 'MuonError': 'Unstripped/RawEvent', 'HltTrackReports': 'Trigger/RawEvent', 'L0CaloFull': 'Trigger/RawEvent', 'L0Muon': 'Trigger/RawEvent'}, 0.2: {'HltRoutingBits': 'DAQ/RawEvent', 'L0PUFull': 'DAQ/RawEvent', 'HltDecReports': 'DAQ/RawEvent', 'HltSelReports': 'DAQ/RawEvent', 'L0MuonError': 'DAQ/RawEvent', 'DstBank': 'DAQ/RawEvent', 'L0MuonProcCand': 'DAQ/RawEvent', 'L0CaloError': 'DAQ/RawEvent', 'TAEHeader': 'DAQ/RawEvent', 'L0MuonProcData': 'DAQ/RawEvent', 'DAQ': 'DAQ/RawEvent', 'DstAddress': 'DAQ/RawEvent', 'L0PUError': 'DAQ/RawEvent', 'L0Calo': 'DAQ/RawEvent', 'L0MuonCtrlAll': 'DAQ/RawEvent', 'HltVertexReports': 'DAQ/RawEvent', 'HltLumiSummary': 'DAQ/RawEvent', 'TestDet': 'DAQ/RawEvent', 'L0PU': 'DAQ/RawEvent', 'L0DUError': 'DAQ/RawEvent', 'ODIN': 'DAQ/RawEvent', 'FileID': 'DAQ/RawEvent', 'DstData': 'DAQ/RawEvent', 'GaudiSerialize': 'DAQ/RawEvent', 'L0MuonRaw': 'DAQ/RawEvent', 'GaudiHeader': 'DAQ/RawEvent', 'L0DU': 'DAQ/RawEvent', 'L0CaloFull': 'DAQ/RawEvent', 'L0Muon': 'DAQ/RawEvent'}, 0.1: {'HltSelReports': 'DAQ/RawEvent', 'OTError': 'DAQ/RawEvent', 'VeloError': 'DAQ/RawEvent', 'UTFull': 'DAQ/RawEvent', 'UTPedestal': 'DAQ/RawEvent', 'PrsTrig': 'DAQ/RawEvent', 'HcalPackedError': 'DAQ/RawEvent', 'L0PUFull': 'DAQ/RawEvent', 'HltDecReports': 'DAQ/RawEvent', 'Rich': 'DAQ/RawEvent', 'VeloProcFull': 'DAQ/RawEvent', 'HltRoutingBits': 'DAQ/RawEvent', 'L0MuonError': 'DAQ/RawEvent', 'VL': 'DAQ/RawEvent', 'L0MuonProcCand': 'DAQ/RawEvent', 'TTPedestal': 'DAQ/RawEvent', 'L0DUError': 'DAQ/RawEvent', 'DstBank': 'DAQ/RawEvent', 'TT': 'DAQ/RawEvent', 'L0MuonProcData': 'DAQ/RawEvent', 'OTRaw': 'DAQ/RawEvent', 'EcalPacked': 'DAQ/RawEvent', 'PrsPacked': 'DAQ/RawEvent', 'VeloPedestal': 'DAQ/RawEvent', 'DAQ': 'DAQ/RawEvent', 'ITError': 'DAQ/RawEvent', 'FileID': 'DAQ/RawEvent', 'EcalTrig': 'DAQ/RawEvent', 'FTCluster': 'DAQ/RawEvent', 'L0PUError': 'DAQ/RawEvent', 'L0Calo': 'DAQ/RawEvent', 'VeloFull': 'DAQ/RawEvent', 'L0MuonCtrlAll': 'DAQ/RawEvent', 'HltVertexReports': 'DAQ/RawEvent', 'EcalE': 'DAQ/RawEvent', 'ITProcFull': 'DAQ/RawEvent', 'HltLumiSummary': 'DAQ/RawEvent', 'TestDet': 'DAQ/RawEvent', 'IT': 'DAQ/RawEvent', 'VP': 'DAQ/RawEvent', 'HcalTrig': 'DAQ/RawEvent', 'HcalE': 'DAQ/RawEvent', 'L0PU': 'DAQ/RawEvent', 'DstAddress': 'DAQ/RawEvent', 'UT': 'DAQ/RawEvent', 'TAEHeader': 'DAQ/RawEvent', 'ODIN': 'DAQ/RawEvent', 'PrsE': 'DAQ/RawEvent', 'PrsPackedError': 'DAQ/RawEvent', 'Velo': 'DAQ/RawEvent', 'Muon': 'DAQ/RawEvent', 'ITPedestal': 'DAQ/RawEvent', 'TTProcFull': 'DAQ/RawEvent', 'DstData': 'DAQ/RawEvent', 'GaudiSerialize': 'DAQ/RawEvent', 'TTFull': 'DAQ/RawEvent', 'L0MuonRaw': 'DAQ/RawEvent', 'UTError': 'DAQ/RawEvent', 'TTError': 'DAQ/RawEvent', 'EcalPackedError': 'DAQ/RawEvent', 'HcalPacked': 'DAQ/RawEvent', 'MuonFull': 'DAQ/RawEvent', 'L0CaloError': 'DAQ/RawEvent', 'GaudiHeader': 'DAQ/RawEvent', 'L0DU': 'DAQ/RawEvent', 'ITFull': 'DAQ/RawEvent', 'OT': 'DAQ/RawEvent', 'MuonError': 'DAQ/RawEvent', 'HltTrackReports': 'DAQ/RawEvent', 'L0CaloFull': 'DAQ/RawEvent', 'L0Muon': 'DAQ/RawEvent'}, 2.2: {'HltSelReports': 'Trigger/RawEvent', 'OTError': 'Other/RawEvent', 'VeloError': 'Other/RawEvent', 'UTFull': 'Other/RawEvent', 'UTPedestal': 'Other/RawEvent', 'PrsTrig': 'Calo/RawEvent', 'HcalPackedError': 'Calo/RawEvent', 'L0PUFull': 'Other/RawEvent', 'HltDecReports': 'Trigger/RawEvent', 'Rich': 'Rich/RawEvent', 'VeloProcFull': 'Other/RawEvent', 'HltRoutingBits': 'Trigger/RawEvent', 'L0MuonError': 'Other/RawEvent', 'VL': 'Other/RawEvent', 'L0MuonProcCand': 'Trigger/RawEvent', 'TTPedestal': 'Other/RawEvent', 'L0DUError': 'Other/RawEvent', 'HC': 'Other/RawEvent', 'DstBank': 'Other/RawEvent', 'TT': 'Other/RawEvent', 'L0MuonProcData': 'Other/RawEvent', 'OTRaw': 'Other/RawEvent', 'EcalPacked': 'Calo/RawEvent', 'PrsPacked': 'Calo/RawEvent', 'VeloPedestal': 'Other/RawEvent', 'DAQ': 'Other/RawEvent', 'ITError': 'Other/RawEvent', 'FileID': 'Other/RawEvent', 'EcalTrig': 'Calo/RawEvent', 'FTCluster': 'Other/RawEvent', 'L0PUError': 'Other/RawEvent', 'L0Calo': 'Trigger/RawEvent', 'VeloFull': 'Other/RawEvent', 'L0MuonCtrlAll': 'Other/RawEvent', 'HltVertexReports': 'Trigger/RawEvent', 'EcalE': 'Calo/RawEvent', 'ITProcFull': 'Other/RawEvent', 'HltLumiSummary': 'Other/RawEvent', 'TestDet': 'Other/RawEvent', 'IT': 'Other/RawEvent', 'VP': 'Other/RawEvent', 'HcalTrig': 'Calo/RawEvent', 'HcalE': 'Calo/RawEvent', 'L0PU': 'Trigger/RawEvent', 'DstAddress': 'Other/RawEvent', 'UT': 'Other/RawEvent', 'TAEHeader': 'Other/RawEvent', 'ODIN': 'Trigger/RawEvent', 'PrsE': 'Calo/RawEvent', 'PrsPackedError': 'Calo/RawEvent', 'Velo': 'Other/RawEvent', 'Muon': 'Muon/RawEvent', 'ITPedestal': 'Other/RawEvent', 'TTProcFull': 'Other/RawEvent', 'DstData': 'Other/RawEvent', 'GaudiSerialize': 'Other/RawEvent', 'TTFull': 'Other/RawEvent', 'L0MuonRaw': 'Other/RawEvent', 'UTError': 'Other/RawEvent', 'TTError': 'Other/RawEvent', 'EcalPackedError': 'Calo/RawEvent', 'HcalPacked': 'Calo/RawEvent', 'MuonFull': 'Other/RawEvent', 'L0CaloError': 'Other/RawEvent', 'GaudiHeader': 'Other/RawEvent', 'L0DU': 'Trigger/RawEvent', 'ITFull': 'Other/RawEvent', 'OT': 'Other/RawEvent', 'MuonError': 'Other/RawEvent', 'HltTrackReports': 'Trigger/RawEvent', 'L0CaloFull': 'Trigger/RawEvent', 'L0Muon': 'Trigger/RawEvent'}, 3.1: {'HltSelReports': 'Trigger/#TCK#/RawEvent', 'OTError': 'Other/RawEvent', 'VeloError': 'Other/RawEvent', 'UTFull': 'Other/RawEvent', 'UTPedestal': 'Other/RawEvent', 'PrsTrig': 'Calo/RawEvent', 'HcalPackedError': 'Calo/RawEvent', 'L0PUFull': 'Other/RawEvent', 'HltDecReports': 'Trigger/#TCK#/RawEvent', 'Rich': 'Rich/RawEvent', 'VeloProcFull': 'Other/RawEvent', 'HltRoutingBits': 'Trigger/#TCK#/RawEvent', 'L0MuonError': 'Other/RawEvent', 'VL': 'Other/RawEvent', 'L0MuonProcCand': 'Trigger/#TCK#/RawEvent', 'TTPedestal': 'Other/RawEvent', 'L0DUError': 'Other/RawEvent', 'DstBank': 'Other/RawEvent', 'TT': 'Other/RawEvent', 'L0MuonProcData': 'Other/RawEvent', 'OTRaw': 'Other/RawEvent', 'EcalPacked': 'Calo/RawEvent', 'PrsPacked': 'Calo/RawEvent', 'VeloPedestal': 'Other/RawEvent', 'DAQ': 'Other/RawEvent', 'ITError': 'Other/RawEvent', 'FileID': 'Other/RawEvent', 'EcalTrig': 'Calo/RawEvent', 'FTCluster': 'Other/RawEvent', 'L0PUError': 'Other/RawEvent', 'L0Calo': 'Trigger/#TCK#/RawEvent', 'VeloFull': 'Other/RawEvent', 'L0MuonCtrlAll': 'Other/RawEvent', 'HltVertexReports': 'Trigger/#TCK#/RawEvent', 'EcalE': 'Calo/RawEvent', 'ITProcFull': 'Other/RawEvent', 'HltLumiSummary': 'Other/RawEvent', 'TestDet': 'Other/RawEvent', 'IT': 'Other/RawEvent', 'VP': 'Other/RawEvent', 'HcalTrig': 'Calo/RawEvent', 'HcalE': 'Calo/RawEvent', 'L0PU': 'Trigger/#TCK#/RawEvent', 'DstAddress': 'Other/RawEvent', 'UT': 'Other/RawEvent', 'TAEHeader': 'Other/RawEvent', 'ODIN': 'Trigger/#TCK#/RawEvent', 'PrsE': 'Calo/RawEvent', 'PrsPackedError': 'Calo/RawEvent', 'Velo': 'Other/RawEvent', 'Muon': 'Muon/RawEvent', 'ITPedestal': 'Other/RawEvent', 'TTProcFull': 'Other/RawEvent', 'DstData': 'Other/RawEvent', 'GaudiSerialize': 'Other/RawEvent', 'TTFull': 'Other/RawEvent', 'L0MuonRaw': 'Other/RawEvent', 'UTError': 'Other/RawEvent', 'TTError': 'Other/RawEvent', 'EcalPackedError': 'Calo/RawEvent', 'HcalPacked': 'Calo/RawEvent', 'MuonFull': 'Other/RawEvent', 'L0CaloError': 'Other/RawEvent', 'GaudiHeader': 'Other/RawEvent', 'L0DU': 'Trigger/#TCK#/RawEvent', 'ITFull': 'Other/RawEvent', 'OT': 'Other/RawEvent', 'MuonError': 'Other/RawEvent', 'L0CaloFull': 'Trigger/#TCK#/RawEvent', 'L0Muon': 'Trigger/#TCK#/RawEvent'}, 0.3: {'HltSelReports': 'DAQ/RawEvent', 'OTError': 'DAQ/RawEvent', 'VeloError': 'DAQ/RawEvent', 'UTFull': 'DAQ/RawEvent', 'UTPedestal': 'DAQ/RawEvent', 'PrsTrig': 'DAQ/RawEvent', 'HcalPackedError': 'DAQ/RawEvent', 'L0PUFull': 'DAQ/RawEvent', 'HltDecReports': 'DAQ/RawEvent', 'Rich': 'DAQ/RawEvent', 'VeloProcFull': 'DAQ/RawEvent', 'HltRoutingBits': 'DAQ/RawEvent', 'L0MuonError': 'DAQ/RawEvent', 'VL': 'DAQ/RawEvent', 'L0MuonProcCand': 'DAQ/RawEvent', 'TTPedestal': 'DAQ/RawEvent', 'L0DUError': 'DAQ/RawEvent', 'HC': 'DAQ/RawEvent', 'DstBank': 'DAQ/RawEvent', 'TT': 'DAQ/RawEvent', 'L0MuonProcData': 'DAQ/RawEvent', 'OTRaw': 'DAQ/RawEvent', 'EcalPacked': 'DAQ/RawEvent', 'PrsPacked': 'DAQ/RawEvent', 'VeloPedestal': 'DAQ/RawEvent', 'DAQ': 'DAQ/RawEvent', 'ITError': 'DAQ/RawEvent', 'FileID': 'DAQ/RawEvent', 'EcalTrig': 'DAQ/RawEvent', 'FTCluster': 'DAQ/RawEvent', 'L0PUError': 'DAQ/RawEvent', 'L0Calo': 'DAQ/RawEvent', 'VeloFull': 'DAQ/RawEvent', 'L0MuonCtrlAll': 'DAQ/RawEvent', 'HltVertexReports': 'DAQ/RawEvent', 'EcalE': 'DAQ/RawEvent', 'ITProcFull': 'DAQ/RawEvent', 'HltLumiSummary': 'DAQ/RawEvent', 'TestDet': 'DAQ/RawEvent', 'IT': 'DAQ/RawEvent', 'VP': 'DAQ/RawEvent', 'HcalTrig': 'DAQ/RawEvent', 'HcalE': 'DAQ/RawEvent', 'L0PU': 'DAQ/RawEvent', 'DstAddress': 'DAQ/RawEvent', 'UT': 'DAQ/RawEvent', 'TAEHeader': 'DAQ/RawEvent', 'ODIN': 'DAQ/RawEvent', 'PrsE': 'DAQ/RawEvent', 'PrsPackedError': 'DAQ/RawEvent', 'Velo': 'DAQ/RawEvent', 'Muon': 'DAQ/RawEvent', 'ITPedestal': 'DAQ/RawEvent', 'TTProcFull': 'DAQ/RawEvent', 'DstData': 'DAQ/RawEvent', 'GaudiSerialize': 'DAQ/RawEvent', 'TTFull': 'DAQ/RawEvent', 'L0MuonRaw': 'DAQ/RawEvent', 'UTError': 'DAQ/RawEvent', 'TTError': 'DAQ/RawEvent', 'EcalPackedError': 'DAQ/RawEvent', 'HcalPacked': 'DAQ/RawEvent', 'MuonFull': 'DAQ/RawEvent', 'L0CaloError': 'DAQ/RawEvent', 'GaudiHeader': 'DAQ/RawEvent', 'L0DU': 'DAQ/RawEvent', 'ITFull': 'DAQ/RawEvent', 'OT': 'DAQ/RawEvent', 'MuonError': 'DAQ/RawEvent', 'HltTrackReports': 'DAQ/RawEvent', 'L0CaloFull': 'DAQ/RawEvent', 'L0Muon': 'DAQ/RawEvent'}, 0.4: {'HltRoutingBits': 'DAQ/RawEvent', 'L0PUFull': 'DAQ/RawEvent', 'HltDecReports': 'DAQ/RawEvent', 'HC': 'DAQ/RawEvent', 'HltSelReports': 'DAQ/RawEvent', 'L0MuonError': 'DAQ/RawEvent', 'DstBank': 'DAQ/RawEvent', 'L0MuonProcCand': 'DAQ/RawEvent', 'L0CaloError': 'DAQ/RawEvent', 'TAEHeader': 'DAQ/RawEvent', 'L0MuonProcData': 'DAQ/RawEvent', 'DAQ': 'DAQ/RawEvent', 'DstAddress': 'DAQ/RawEvent', 'L0PUError': 'DAQ/RawEvent', 'L0Calo': 'DAQ/RawEvent', 'L0MuonCtrlAll': 'DAQ/RawEvent', 'HltVertexReports': 'DAQ/RawEvent', 'HltLumiSummary': 'DAQ/RawEvent', 'TestDet': 'DAQ/RawEvent', 'L0PU': 'DAQ/RawEvent', 'L0DUError': 'DAQ/RawEvent', 'ODIN': 'DAQ/RawEvent', 'FileID': 'DAQ/RawEvent', 'DstData': 'DAQ/RawEvent', 'GaudiSerialize': 'DAQ/RawEvent', 'L0MuonRaw': 'DAQ/RawEvent', 'GaudiHeader': 'DAQ/RawEvent', 'L0DU': 'DAQ/RawEvent', 'L0CaloFull': 'DAQ/RawEvent', 'L0Muon': 'DAQ/RawEvent'}, 4.3: {'HltSelReports': 'Trigger/RawEvent', 'OTError': 'Unstripped/RawEvent', 'VeloError': 'Unstripped/RawEvent', 'UTFull': 'Unstripped/RawEvent', 'UTPedestal': 'Unstripped/RawEvent', 'PrsTrig': 'Calo/RawEvent', 'HcalPackedError': 'Unstripped/RawEvent', 'L0PUFull': 'Unstripped/RawEvent', 'HltDecReports': 'Trigger/RawEvent', 'Rich': 'Rich/RawEvent', 'VeloProcFull': 'Unstripped/RawEvent', 'HltRoutingBits': 'Trigger/RawEvent', 'L0MuonError': 'Unstripped/RawEvent', 'VL': 'Unstripped/RawEvent', 'L0MuonProcCand': 'Trigger/RawEvent', 'TTPedestal': 'Unstripped/RawEvent', 'L0DUError': 'Unstripped/RawEvent', 'HC': 'HC/RawEvent', 'DstBank': 'Unstripped/RawEvent', 'TT': 'Tracker/RawEvent', 'L0MuonProcData': 'Unstripped/RawEvent', 'OTRaw': 'Unstripped/RawEvent', 'EcalPacked': 'Calo/RawEvent', 'PrsPacked': 'Calo/RawEvent', 'VeloPedestal': 'Unstripped/RawEvent', 'DAQ': 'Unstripped/RawEvent', 'ITError': 'Tracker/RawEvent', 'FileID': 'Unstripped/RawEvent', 'EcalTrig': 'Calo/RawEvent', 'FTCluster': 'Tracker/RawEvent', 'L0PUError': 'Unstripped/RawEvent', 'L0Calo': 'Trigger/RawEvent', 'VeloFull': 'Unstripped/RawEvent', 'L0MuonCtrlAll': 'Unstripped/RawEvent', 'HltVertexReports': 'Trigger/RawEvent', 'EcalE': 'Calo/RawEvent', 'ITProcFull': 'Unstripped/RawEvent', 'HltLumiSummary': 'Unstripped/RawEvent', 'TestDet': 'Unstripped/RawEvent', 'IT': 'Tracker/RawEvent', 'VP': 'Velo/RawEvent', 'HcalTrig': 'Calo/RawEvent', 'HcalE': 'Calo/RawEvent', 'L0PU': 'Trigger/RawEvent', 'DstAddress': 'Unstripped/RawEvent', 'UT': 'Tracker/RawEvent', 'TAEHeader': 'Unstripped/RawEvent', 'ODIN': ['Trigger/RawEvent'], 'PrsE': 'Calo/RawEvent', 'PrsPackedError': 'Unstripped/RawEvent', 'Velo': 'Velo/RawEvent', 'Muon': 'Muon/RawEvent', 'ITPedestal': 'Unstripped/RawEvent', 'TTProcFull': 'Unstripped/RawEvent', 'DstData': 'PersistReco/RawEvent', 'GaudiSerialize': 'Unstripped/RawEvent', 'TTFull': 'Unstripped/RawEvent', 'L0MuonRaw': 'Unstripped/RawEvent', 'UTError': 'Unstripped/RawEvent', 'TTError': 'Tracker/RawEvent', 'EcalPackedError': 'Unstripped/RawEvent', 'HcalPacked': 'Calo/RawEvent', 'MuonFull': 'Unstripped/RawEvent', 'L0CaloError': 'Unstripped/RawEvent', 'GaudiHeader': 'Unstripped/RawEvent', 'L0DU': 'Trigger/RawEvent', 'ITFull': 'Unstripped/RawEvent', 'OT': 'Tracker/RawEvent', 'MuonError': 'Unstripped/RawEvent', 'HltTrackReports': 'Trigger/RawEvent', 'L0CaloFull': 'Trigger/RawEvent', 'L0Muon': 'Trigger/RawEvent'}, 2.1: {'HltSelReports': 'Trigger/RawEvent', 'OTError': 'Other/RawEvent', 'VeloError': 'Other/RawEvent', 'UTFull': 'Other/RawEvent', 'UTPedestal': 'Other/RawEvent', 'PrsTrig': 'Calo/RawEvent', 'HcalPackedError': 'Calo/RawEvent', 'L0PUFull': 'Other/RawEvent', 'HltDecReports': 'Trigger/RawEvent', 'Rich': 'Rich/RawEvent', 'VeloProcFull': 'Other/RawEvent', 'HltRoutingBits': 'Trigger/RawEvent', 'L0MuonError': 'Other/RawEvent', 'VL': 'Other/RawEvent', 'L0MuonProcCand': 'Trigger/RawEvent', 'TTPedestal': 'Other/RawEvent', 'L0DUError': 'Other/RawEvent', 'DstBank': 'Other/RawEvent', 'TT': 'Other/RawEvent', 'L0MuonProcData': 'Other/RawEvent', 'OTRaw': 'Other/RawEvent', 'EcalPacked': 'Calo/RawEvent', 'PrsPacked': 'Calo/RawEvent', 'VeloPedestal': 'Other/RawEvent', 'DAQ': 'Other/RawEvent', 'ITError': 'Other/RawEvent', 'FileID': 'Other/RawEvent', 'EcalTrig': 'Calo/RawEvent', 'FTCluster': 'Other/RawEvent', 'L0PUError': 'Other/RawEvent', 'L0Calo': 'Trigger/RawEvent', 'VeloFull': 'Other/RawEvent', 'L0MuonCtrlAll': 'Other/RawEvent', 'HltVertexReports': 'Trigger/RawEvent', 'EcalE': 'Calo/RawEvent', 'ITProcFull': 'Other/RawEvent', 'HltLumiSummary': 'Other/RawEvent', 'TestDet': 'Other/RawEvent', 'IT': 'Other/RawEvent', 'VP': 'Other/RawEvent', 'HcalTrig': 'Calo/RawEvent', 'HcalE': 'Calo/RawEvent', 'L0PU': 'Trigger/RawEvent', 'DstAddress': 'Other/RawEvent', 'UT': 'Other/RawEvent', 'TAEHeader': 'Other/RawEvent', 'ODIN': 'Trigger/RawEvent', 'PrsE': 'Calo/RawEvent', 'PrsPackedError': 'Calo/RawEvent', 'Velo': 'Other/RawEvent', 'Muon': 'Muon/RawEvent', 'ITPedestal': 'Other/RawEvent', 'TTProcFull': 'Other/RawEvent', 'DstData': 'Other/RawEvent', 'GaudiSerialize': 'Other/RawEvent', 'TTFull': 'Other/RawEvent', 'L0MuonRaw': 'Other/RawEvent', 'UTError': 'Other/RawEvent', 'TTError': 'Other/RawEvent', 'EcalPackedError': 'Calo/RawEvent', 'HcalPacked': 'Calo/RawEvent', 'MuonFull': 'Other/RawEvent', 'L0CaloError': 'Other/RawEvent', 'GaudiHeader': 'Other/RawEvent', 'L0DU': 'Trigger/RawEvent', 'ITFull': 'Other/RawEvent', 'OT': 'Other/RawEvent', 'MuonError': 'Other/RawEvent', 'HltTrackReports': 'Trigger/RawEvent', 'L0CaloFull': 'Trigger/RawEvent', 'L0Muon': 'Trigger/RawEvent'}, 4.1: {'HltSelReports': 'Trigger/RawEvent', 'OTError': 'Unstripped/RawEvent', 'VeloError': 'Unstripped/RawEvent', 'UTFull': 'Unstripped/RawEvent', 'UTPedestal': 'Unstripped/RawEvent', 'PrsTrig': 'Calo/RawEvent', 'HcalPackedError': 'Unstripped/RawEvent', 'L0PUFull': 'Unstripped/RawEvent', 'HltDecReports': 'Trigger/RawEvent', 'Rich': 'Rich/RawEvent', 'VeloProcFull': 'Unstripped/RawEvent', 'HltRoutingBits': 'Trigger/RawEvent', 'L0MuonError': 'Unstripped/RawEvent', 'VL': 'Unstripped/RawEvent', 'L0MuonProcCand': 'Trigger/RawEvent', 'TTPedestal': 'Unstripped/RawEvent', 'L0DUError': 'Unstripped/RawEvent', 'HC': 'HC/RawEvent', 'DstBank': 'Unstripped/RawEvent', 'TT': 'Tracker/RawEvent', 'L0MuonProcData': 'Unstripped/RawEvent', 'OTRaw': 'Unstripped/RawEvent', 'EcalPacked': 'Calo/RawEvent', 'PrsPacked': 'Calo/RawEvent', 'VeloPedestal': 'Unstripped/RawEvent', 'DAQ': 'Unstripped/RawEvent', 'ITError': 'Unstripped/RawEvent', 'FileID': 'Unstripped/RawEvent', 'EcalTrig': 'Calo/RawEvent', 'FTCluster': 'Tracker/RawEvent', 'L0PUError': 'Unstripped/RawEvent', 'L0Calo': 'Trigger/RawEvent', 'VeloFull': 'Unstripped/RawEvent', 'L0MuonCtrlAll': 'Unstripped/RawEvent', 'HltVertexReports': 'Trigger/RawEvent', 'EcalE': 'Calo/RawEvent', 'ITProcFull': 'Unstripped/RawEvent', 'HltLumiSummary': 'Unstripped/RawEvent', 'TestDet': 'Unstripped/RawEvent', 'IT': 'Tracker/RawEvent', 'VP': 'Velo/RawEvent', 'HcalTrig': 'Calo/RawEvent', 'HcalE': 'Calo/RawEvent', 'L0PU': 'Trigger/RawEvent', 'DstAddress': 'Unstripped/RawEvent', 'UT': 'Tracker/RawEvent', 'TAEHeader': 'Unstripped/RawEvent', 'ODIN': ['Trigger/RawEvent'], 'PrsE': 'Calo/RawEvent', 'PrsPackedError': 'Unstripped/RawEvent', 'Velo': 'Velo/RawEvent', 'Muon': 'Muon/RawEvent', 'ITPedestal': 'Unstripped/RawEvent', 'TTProcFull': 'Unstripped/RawEvent', 'DstData': 'Unstripped/RawEvent', 'GaudiSerialize': 'Unstripped/RawEvent', 'TTFull': 'Unstripped/RawEvent', 'L0MuonRaw': 'Unstripped/RawEvent', 'UTError': 'Unstripped/RawEvent', 'TTError': 'Unstripped/RawEvent', 'EcalPackedError': 'Unstripped/RawEvent', 'HcalPacked': 'Calo/RawEvent', 'MuonFull': 'Unstripped/RawEvent', 'L0CaloError': 'Unstripped/RawEvent', 'GaudiHeader': 'Unstripped/RawEvent', 'L0DU': 'Trigger/RawEvent', 'ITFull': 'Unstripped/RawEvent', 'OT': 'Tracker/RawEvent', 'MuonError': 'Unstripped/RawEvent', 'HltTrackReports': 'Trigger/RawEvent', 'L0CaloFull': 'Trigger/RawEvent', 'L0Muon': 'Trigger/RawEvent'}, 3.3: {'HltSelReports': 'Trigger/#TCK#/RawEvent', 'OTError': 'Other/RawEvent', 'VeloError': 'Other/RawEvent', 'UTFull': 'Other/RawEvent', 'UTPedestal': 'Other/RawEvent', 'PrsTrig': 'Calo/RawEvent', 'HcalPackedError': 'Calo/RawEvent', 'L0PUFull': 'Other/RawEvent', 'HltDecReports': 'Trigger/#TCK#/RawEvent', 'Rich': 'Rich/RawEvent', 'VeloProcFull': 'Other/RawEvent', 'HltRoutingBits': 'Trigger/#TCK#/RawEvent', 'L0MuonError': 'Other/RawEvent', 'VL': 'Other/RawEvent', 'L0MuonProcCand': 'Trigger/#L0TCK#/RawEvent', 'TTPedestal': 'Other/RawEvent', 'L0DUError': 'Other/RawEvent', 'DstBank': 'Other/RawEvent', 'TT': 'Other/RawEvent', 'L0MuonProcData': 'Other/RawEvent', 'OTRaw': 'Other/RawEvent', 'EcalPacked': 'Calo/RawEvent', 'PrsPacked': 'Calo/RawEvent', 'VeloPedestal': 'Other/RawEvent', 'DAQ': 'Other/RawEvent', 'ITError': 'Other/RawEvent', 'FileID': 'Other/RawEvent', 'EcalTrig': 'Calo/RawEvent', 'FTCluster': 'Other/RawEvent', 'L0PUError': 'Other/RawEvent', 'L0Calo': 'Trigger/#L0TCK#/RawEvent', 'VeloFull': 'Other/RawEvent', 'L0MuonCtrlAll': 'Other/RawEvent', 'HltVertexReports': 'Trigger/#TCK#/RawEvent', 'EcalE': 'Calo/RawEvent', 'ITProcFull': 'Other/RawEvent', 'HltLumiSummary': 'Other/RawEvent', 'TestDet': 'Other/RawEvent', 'IT': 'Other/RawEvent', 'VP': 'Other/RawEvent', 'HcalTrig': 'Calo/RawEvent', 'HcalE': 'Calo/RawEvent', 'L0PU': 'Trigger/#L0TCK#/RawEvent', 'DstAddress': 'Other/RawEvent', 'UT': 'Other/RawEvent', 'TAEHeader': 'Other/RawEvent', 'ODIN': ['Trigger/#TCK#/RawEvent', 'Trigger/#L0TCK#/RawEvent'], 'PrsE': 'Calo/RawEvent', 'PrsPackedError': 'Calo/RawEvent', 'Velo': 'Other/RawEvent', 'Muon': 'Muon/RawEvent', 'ITPedestal': 'Other/RawEvent', 'TTProcFull': 'Other/RawEvent', 'DstData': 'Other/RawEvent', 'GaudiSerialize': 'Other/RawEvent', 'TTFull': 'Other/RawEvent', 'L0MuonRaw': 'Other/RawEvent', 'UTError': 'Other/RawEvent', 'TTError': 'Other/RawEvent', 'EcalPackedError': 'Calo/RawEvent', 'HcalPacked': 'Calo/RawEvent', 'MuonFull': 'Other/RawEvent', 'L0CaloError': 'Other/RawEvent', 'GaudiHeader': 'Other/RawEvent', 'L0DU': 'Trigger/#L0TCK#/RawEvent', 'ITFull': 'Other/RawEvent', 'OT': 'Other/RawEvent', 'MuonError': 'Other/RawEvent', 'L0CaloFull': 'Trigger/#L0TCK#/RawEvent', 'L0Muon': 'Trigger/#L0TCK#/RawEvent'}, 4.2: {'HltSelReports': 'Trigger/RawEvent', 'OTError': 'Unstripped/RawEvent', 'VeloError': 'Unstripped/RawEvent', 'UTFull': 'Unstripped/RawEvent', 'UTPedestal': 'Unstripped/RawEvent', 'PrsTrig': 'Calo/RawEvent', 'HcalPackedError': 'Unstripped/RawEvent', 'L0PUFull': 'Unstripped/RawEvent', 'HltDecReports': 'Trigger/RawEvent', 'Rich': 'Rich/RawEvent', 'VeloProcFull': 'Unstripped/RawEvent', 'HltRoutingBits': 'Trigger/RawEvent', 'L0MuonError': 'Unstripped/RawEvent', 'VL': 'Unstripped/RawEvent', 'L0MuonProcCand': 'Trigger/RawEvent', 'TTPedestal': 'Unstripped/RawEvent', 'L0DUError': 'Unstripped/RawEvent', 'HC': 'HC/RawEvent', 'DstBank': 'Unstripped/RawEvent', 'TT': 'Tracker/RawEvent', 'L0MuonProcData': 'Unstripped/RawEvent', 'OTRaw': 'Unstripped/RawEvent', 'EcalPacked': 'Calo/RawEvent', 'PrsPacked': 'Calo/RawEvent', 'VeloPedestal': 'Unstripped/RawEvent', 'DAQ': 'Unstripped/RawEvent', 'ITError': 'Tracker/RawEvent', 'FileID': 'Unstripped/RawEvent', 'EcalTrig': 'Calo/RawEvent', 'FTCluster': 'Tracker/RawEvent', 'L0PUError': 'Unstripped/RawEvent', 'L0Calo': 'Trigger/RawEvent', 'VeloFull': 'Unstripped/RawEvent', 'L0MuonCtrlAll': 'Unstripped/RawEvent', 'HltVertexReports': 'Trigger/RawEvent', 'EcalE': 'Calo/RawEvent', 'ITProcFull': 'Unstripped/RawEvent', 'HltLumiSummary': 'Unstripped/RawEvent', 'TestDet': 'Unstripped/RawEvent', 'IT': 'Tracker/RawEvent', 'VP': 'Velo/RawEvent', 'HcalTrig': 'Calo/RawEvent', 'HcalE': 'Calo/RawEvent', 'L0PU': 'Trigger/RawEvent', 'DstAddress': 'Unstripped/RawEvent', 'UT': 'Tracker/RawEvent', 'TAEHeader': 'Unstripped/RawEvent', 'ODIN': ['Trigger/RawEvent'], 'PrsE': 'Calo/RawEvent', 'PrsPackedError': 'Unstripped/RawEvent', 'Velo': 'Velo/RawEvent', 'Muon': 'Muon/RawEvent', 'ITPedestal': 'Unstripped/RawEvent', 'TTProcFull': 'Unstripped/RawEvent', 'DstData': 'Unstripped/RawEvent', 'GaudiSerialize': 'Unstripped/RawEvent', 'TTFull': 'Unstripped/RawEvent', 'L0MuonRaw': 'Unstripped/RawEvent', 'UTError': 'Unstripped/RawEvent', 'TTError': 'Tracker/RawEvent', 'EcalPackedError': 'Unstripped/RawEvent', 'HcalPacked': 'Calo/RawEvent', 'MuonFull': 'Unstripped/RawEvent', 'L0CaloError': 'Unstripped/RawEvent', 'GaudiHeader': 'Unstripped/RawEvent', 'L0DU': 'Trigger/RawEvent', 'ITFull': 'Unstripped/RawEvent', 'OT': 'Tracker/RawEvent', 'MuonError': 'Unstripped/RawEvent', 'HltTrackReports': 'Trigger/RawEvent', 'L0CaloFull': 'Trigger/RawEvent', 'L0Muon': 'Trigger/RawEvent'}, 3.2: {'OTError': 'Other/RawEvent', 'VeloError': 'Other/RawEvent', 'UTFull': 'Other/RawEvent', 'UTPedestal': 'Other/RawEvent', 'PrsTrig': 'Calo/RawEvent', 'HcalPackedError': 'Calo/RawEvent', 'L0PUFull': 'Other/RawEvent', 'UT': 'Other/RawEvent', 'Rich': 'Rich/RawEvent', 'VeloProcFull': 'Other/RawEvent', 'L0MuonError': 'Other/RawEvent', 'VL': 'Other/RawEvent', 'L0MuonProcCand': 'Trigger/#L0TCK#/RawEvent', 'TTPedestal': 'Other/RawEvent', 'L0DUError': 'Other/RawEvent', 'DstBank': 'Other/RawEvent', 'TT': 'Other/RawEvent', 'OTRaw': 'Other/RawEvent', 'EcalPacked': 'Calo/RawEvent', 'PrsPacked': 'Calo/RawEvent', 'VeloPedestal': 'Other/RawEvent', 'DAQ': 'Other/RawEvent', 'ITError': 'Other/RawEvent', 'FileID': 'Other/RawEvent', 'EcalTrig': 'Calo/RawEvent', 'FTCluster': 'Other/RawEvent', 'L0PUError': 'Other/RawEvent', 'L0Calo': 'Trigger/#L0TCK#/RawEvent', 'VeloFull': 'Other/RawEvent', 'L0MuonCtrlAll': 'Other/RawEvent', 'L0MuonProcData': 'Other/RawEvent', 'EcalE': 'Calo/RawEvent', 'ITProcFull': 'Other/RawEvent', 'HltLumiSummary': 'Other/RawEvent', 'TestDet': 'Other/RawEvent', 'IT': 'Other/RawEvent', 'VP': 'Other/RawEvent', 'HcalTrig': 'Calo/RawEvent', 'HcalE': 'Calo/RawEvent', 'L0PU': 'Trigger/#L0TCK#/RawEvent', 'DstAddress': 'Other/RawEvent', 'TAEHeader': 'Other/RawEvent', 'ODIN': 'Trigger/#L0TCK#/RawEvent', 'PrsE': 'Calo/RawEvent', 'PrsPackedError': 'Calo/RawEvent', 'Velo': 'Other/RawEvent', 'Muon': 'Muon/RawEvent', 'ITPedestal': 'Other/RawEvent', 'TTProcFull': 'Other/RawEvent', 'DstData': 'Other/RawEvent', 'GaudiSerialize': 'Other/RawEvent', 'TTFull': 'Other/RawEvent', 'L0MuonRaw': 'Other/RawEvent', 'UTError': 'Other/RawEvent', 'TTError': 'Other/RawEvent', 'EcalPackedError': 'Calo/RawEvent', 'HcalPacked': 'Calo/RawEvent', 'MuonFull': 'Other/RawEvent', 'L0CaloError': 'Other/RawEvent', 'GaudiHeader': 'Other/RawEvent', 'L0DU': 'Trigger/#L0TCK#/RawEvent', 'ITFull': 'Other/RawEvent', 'OT': 'Other/RawEvent', 'MuonError': 'Other/RawEvent', 'L0CaloFull': 'Trigger/#L0TCK#/RawEvent', 'L0Muon': 'Trigger/#L0TCK#/RawEvent'}}
# |                        (default: None)
# |-TCKReplacePattern      = '#TCK#'
# |-GenericReplacePatterns = {}  (default: {})
# |-TCK                    = None
# \----- (End of User RawEventFormatConf/RawEventFormatConf) -----------------------------------------
# applying configuration of IOTest
# /***** User IOTest/IOTest **************************************************************************
# |-KillDAQ     = True  (default: False)
# |-DataContent = 'MDST'  (default: 'DST')
# |-DataType    = '2011'
# |-LoadAll     = True  (default: False)
# |-EvtMax      = 5  (default: -1)
# |-WithMC      = False
# \----- (End of User IOTest/IOTest) -----------------------------------------------------------------
# skipping configuration of DstConf
# skipping configuration of DigiConf
# skipping configuration of CaloDstPackConf
# skipping configuration of SimConf
# skipping configuration of TurboConf
# skipping configuration of CaloDstUnPackConf
# skipping configuration of DecodeRawEvent
ApplicationMgr    SUCCESS
====================================================================================================================================
                                                   Welcome to LHCb version HEAD
                                          running on lbbuild34.cern.ch on Fri Oct 12 06:31:24 2018
====================================================================================================================================
ApplicationMgr       INFO Application Manager Configured successfully
TESFingerPrint      DEBUG Property update for OutputLevel : new value = 1
TESFingerPrint    VERBOSE ServiceLocatorHelper::service: found service AlgContextSvc
TESFingerPrint    VERBOSE ServiceLocatorHelper::service: found service EventDataSvc
TESFingerPrint    VERBOSE ServiceLocatorHelper::service: found service TimelineSvc
TESFingerPrint      DEBUG Initialize base class GaudiCommon<Algorithm>
TESFingerPrint      DEBUG could not locate CounterSummarySvc, no counter summary will be made
TESFingerPrint      DEBUG List of ALL properties of TESFingerPrint/TESFingerPrint  #properties = 39
TESFingerPrint      DEBUG Property ['Name': Value] =  'OutputFileName':tes_finger_print.dat
TESFingerPrint      DEBUG Property ['Name': Value] =  'HeuristicsLevel':Medium
TESFingerPrint      DEBUG Property ['Name': Value] =  'RequireObjects':[  ]
TESFingerPrint      DEBUG Property ['Name': Value] =  'VetoObjects':[  ]
TESFingerPrint      DEBUG Property ['Name': Value] =  'StatEntityList':[  ]
TESFingerPrint      DEBUG Property ['Name': Value] =  'CounterList':[ '.*' ]
TESFingerPrint      DEBUG Property ['Name': Value] =  'UseEfficiencyRowFormat':True
TESFingerPrint      DEBUG Property ['Name': Value] =  'EfficiencyRowFormat': |*%|-48.48s|%|50t||%|10d| |%|11.5g| |(%|#9.6g| +- %|-#9.6g|)%%|   -------   |   -------   |
TESFingerPrint      DEBUG Property ['Name': Value] =  'RegularRowFormat': | %|-48.48s|%|50t||%|10d| |%|11.7g| |%|#11.5g| |%|#11.5g| |%|#12.5g| |%|#12.5g| |
TESFingerPrint      DEBUG Property ['Name': Value] =  'StatTableHeader': |    Counter                                      |     #     |    sum     | mean/eff^* | rms/err^*  |     min     |     max     |
TESFingerPrint      DEBUG Property ['Name': Value] =  'RootInTES':
TESFingerPrint      DEBUG Property ['Name': Value] =  'Context':
TESFingerPrint      DEBUG Property ['Name': Value] =  'TypePrint':True
TESFingerPrint      DEBUG Property ['Name': Value] =  'PrintEmptyCounters':False
TESFingerPrint      DEBUG Property ['Name': Value] =  'StatPrint':True
TESFingerPrint      DEBUG Property ['Name': Value] =  'PropertiesPrint':False
TESFingerPrint      DEBUG Property ['Name': Value] =  'ErrorsPrint':True
TESFingerPrint      DEBUG Property ['Name': Value] =  'FilterCircularDependencies':True
TESFingerPrint      DEBUG Property ['Name': Value] =  'IsIOBound':False
TESFingerPrint      DEBUG Property ['Name': Value] =  'NeededResources':[  ]
TESFingerPrint      DEBUG Property ['Name': Value] =  'Cardinality':1
TESFingerPrint      DEBUG Property ['Name': Value] =  'RegisterForContextService':True
TESFingerPrint      DEBUG Property ['Name': Value] =  'MonitorService':MonitorSvc
TESFingerPrint      DEBUG Property ['Name': Value] =  'Timeline':False
TESFingerPrint      DEBUG Property ['Name': Value] =  'AuditStop':False
TESFingerPrint      DEBUG Property ['Name': Value] =  'AuditStart':False
TESFingerPrint      DEBUG Property ['Name': Value] =  'AuditEndRun':False
TESFingerPrint      DEBUG Property ['Name': Value] =  'AuditBeginRun':False
TESFingerPrint      DEBUG Property ['Name': Value] =  'AuditFinalize':False
TESFingerPrint      DEBUG Property ['Name': Value] =  'AuditExecute':False
TESFingerPrint      DEBUG Property ['Name': Value] =  'AuditRestart':False
TESFingerPrint      DEBUG Property ['Name': Value] =  'AuditReinitialize':False
TESFingerPrint      DEBUG Property ['Name': Value] =  'AuditInitialize':False
TESFingerPrint      DEBUG Property ['Name': Value] =  'AuditAlgorithms':False
TESFingerPrint      DEBUG Property ['Name': Value] =  'ErrorMax':1
TESFingerPrint      DEBUG Property ['Name': Value] =  'Enable':True
TESFingerPrint      DEBUG Property ['Name': Value] =  'OutputLevel':1
TESFingerPrint      DEBUG Property ['Name': Value] =  'ExtraOutputs':[]
TESFingerPrint      DEBUG Property ['Name': Value] =  'ExtraInputs':[]
TESFingerPrint    VERBOSE ServiceLocatorHelper::service: found service EventDataSvc
TESFingerPrint      DEBUG ==> Initialize
TESFingerPrint    VERBOSE ServiceLocatorHelper::service: found service ToolSvc
TESFingerPrint    VERBOSE ServiceLocatorHelper::service: found service AlgExecStateSvc
TESFingerPrint      DEBUG input handles: 0
TESFingerPrint      DEBUG output handles: 0
TESFingerPrint      DEBUG Data Deps for TESFingerPrint
EventPersistenc...   INFO Added successfully Conversion service:RootCnvSvc
InputCopyStream      INFO Data source: EventDataSvc output: DATAFILE='PFN:Reco12-Stripping17.mdst' SVC='RootCnvSvc' OPT='REC'
FileRecordPersi...   INFO Added successfully Conversion service:FileRecordCnvSvc
FSRInputCopyStream   INFO Data source: FileRecordDataSvc output: DATAFILE='PFN:Reco12-Stripping17.mdst' SVC='FileRecordCnvSvc' OPT='REC'
EventSelector        INFO Stream:EventSelector.DataStreamTool_1 Def:DATAFILE='PFN:root://eoslhcb.cern.ch//eos/lhcb/grid/prod/lhcb/swtest/lhcb/LHCb/Collision11/CHARM.MDST/00012547/0000/00012547_00000013_1.charm.mdst' SVC='Gaudi::RootEvtSelector' OPT='READ'
HistogramPersis...WARNING Histograms saving not required.
ApplicationMgr       INFO Application Manager Initialized successfully
ApplicationMgr       INFO Application Manager Started successfully
EventSelector     SUCCESS Reading Event record 1. Record number within stream 1: 1
EventPersistenc...   INFO Added successfully Conversion service:LHCb::RawDataCnvSvc
PrintHeader       WARNING PrintHeader:: No ODIN Header StatusCode=FAILURE
StoreExplorerAlg     INFO ========= /Event[0x11af17d0@EventDataSvc]:
StoreExplorerAlg     INFO +--> /Event [Address: CLID=0x1 Type=0x2]  DataObject
StoreExplorerAlg     INFO | +--> /Rec [Address: CLID=0x1 Type=0x2]  DataObject
StoreExplorerAlg     INFO | | +--> /Header [Address: CLID=0x69 Type=0x2]  LHCb::RecHeader
StoreExplorerAlg     INFO | | +--> /Status [Address: CLID=0x1389 Type=0x2]  LHCb::ProcStatus
StoreExplorerAlg     INFO | | +--> /Summary [Address: CLID=0x6a Type=0x2]  LHCb::RecSummary
StoreExplorerAlg     INFO | +--> /Trigger [Address: CLID=0x1 Type=0x2]  DataObject
StoreExplorerAlg     INFO | | +--> /RawEvent [Address: CLID=0x3ea Type=0x2]  LHCb::RawEvent
StoreExplorerAlg     INFO | +--> /Strip [Address: CLID=0x1 Type=0x2]  DataObject
StoreExplorerAlg     INFO | | +--> /Phys [Address: CLID=0x1 Type=0x2]  DataObject
StoreExplorerAlg     INFO | |   +--> /DecReports [Address: CLID=0x1d61 Type=0x2]  LHCb::HltDecReports
StoreExplorerAlg     INFO   +--> /Charm [Address: CLID=0x1 Type=0x2]  DataObject
StoreExplorerAlg     INFO   | +--> /Rec [Address: CLID=0x1 Type=0x2]  DataObject
StoreExplorerAlg     INFO   | | +--> /Vertex [Address: CLID=0x1 Type=0x2]  DataObject
StoreExplorerAlg     INFO   | | | +--> /Primary [Address: CLID=0x6272e Type=0x2]  KeyedContainer<LHCb::RecVertex,C [0x2]
StoreExplorerAlg     INFO   | | | +--> /Weights [Address: CLID=0x6272f Type=0x2]  KeyedContainer<LHCb::WeightsVect [0x2]
StoreExplorerAlg     INFO   | | +--> /ProtoP [Address: CLID=0x1 Type=0x2]  DataObject
StoreExplorerAlg     INFO   | | | +--> /Charged [Address: CLID=0x60323 Type=0x2]  KeyedContainer<LHCb::ProtoPartic [0x2]
StoreExplorerAlg     INFO   | | +--> /Track [Address: CLID=0x1 Type=0x2]  DataObject
StoreExplorerAlg     INFO   | | | +--> /Best [Address: CLID=0x6271a Type=0x2]  KeyedContainer<LHCb::Event::v1:: [0x2]
StoreExplorerAlg     INFO   | | +--> /Rich [Address: CLID=0x1 Type=0x2]  DataObject
StoreExplorerAlg     INFO   | | | +--> /PIDs [Address: CLID=0x63072 Type=0x2]  KeyedContainer<LHCb::RichPID,Con [0x2]
StoreExplorerAlg     INFO   | | +--> /Muon [Address: CLID=0x1 Type=0x2]  DataObject
StoreExplorerAlg     INFO   | | | +--> /MuonPID [Address: CLID=0x62b2a Type=0x2]  KeyedContainer<LHCb::MuonPID,Con [0x2]
StoreExplorerAlg     INFO   | | +--> /Calo [Address: CLID=0x1 Type=0x2]  DataObject
StoreExplorerAlg     INFO   | |   +--> /Photons [Address: CLID=0x607d4 Type=0x2]  KeyedContainer<LHCb::CaloHypo,Co [0x2]
StoreExplorerAlg     INFO   | +--> /Phys [Address: CLID=0x1 Type=0x2]  DataObject
StoreExplorerAlg     INFO   | | +--> /DstarPromptWithD02HHHHNoPIDLine [Address: CLID=0x1 Type=0x2]  DataObject
StoreExplorerAlg     INFO   | | | +--> /Particles [Address: CLID=0x60321 Type=0x2]  KeyedContainer<LHCb::Particle,Co [0]
StoreExplorerAlg     INFO   | | +--> /D2hhh_KPPLine [Address: CLID=0x1 Type=0x2]  DataObject
StoreExplorerAlg     INFO   | | | +--> /Particles [Address: CLID=0x60321 Type=0x2]  KeyedContainer<LHCb::Particle,Co [0]
StoreExplorerAlg     INFO   | | +--> /D2hhh_PPPLine [Address: CLID=0x1 Type=0x2]  DataObject
StoreExplorerAlg     INFO   | | | +--> /Particles [Address: CLID=0x60321 Type=0x2]  KeyedContainer<LHCb::Particle,Co [0]
StoreExplorerAlg     INFO   | | +--> /D2hhMicroKPiPromptD2KPiLine [Address: CLID=0x1 Type=0x2]  DataObject
StoreExplorerAlg     INFO   | | | +--> /Particles [Address: CLID=0x60321 Type=0x2]  KeyedContainer<LHCb::Particle,Co [0x1]
StoreExplorerAlg     INFO   | | | +--> /decayVertices [Address: CLID=0x60322 Type=0x2]  KeyedContainer<LHCb::Vertex,Cont [0x1]
StoreExplorerAlg     INFO   | | | +--> /Particle2VertexRelations [Address: CLID=0xea9168dc Type=0x2]  LHCb::Relation1D<LHCb::Particle,
StoreExplorerAlg     INFO   | | | +--> /ReFitPvs_Charm_PVs [Address: CLID=0x6272e Type=0x2]  KeyedContainer<LHCb::RecVertex,C [0x1]
StoreExplorerAlg     INFO   | | | +--> /BestPV_Charm_P2PV [Address: CLID=0xea9168dc Type=0x2]  LHCb::Relation1D<LHCb::Particle,
StoreExplorerAlg     INFO   | | +--> /StdAllNoPIDsPions [Address: CLID=0x1 Type=0x2]  DataObject
StoreExplorerAlg     INFO   | | | +--> /Particles [Address: CLID=0x60321 Type=0x2]  KeyedContainer<LHCb::Particle,Co [0x1]
StoreExplorerAlg     INFO   | | +--> /StdAllNoPIDsKaons [Address: CLID=0x1 Type=0x2]  DataObject
StoreExplorerAlg     INFO   | | | +--> /Particles [Address: CLID=0x60321 Type=0x2]  KeyedContainer<LHCb::Particle,Co [0x1]
StoreExplorerAlg     INFO   | | +--> /DstarForPromptCharm [Address: CLID=0x1 Type=0x2]  DataObject
StoreExplorerAlg     INFO   | | | +--> /Particles [Address: CLID=0x60321 Type=0x2]  KeyedContainer<LHCb::Particle,Co [0]
StoreExplorerAlg     INFO   | | +--> /DsForPromptCharm [Address: CLID=0x1 Type=0x2]  DataObject
StoreExplorerAlg     INFO   | | | +--> /Particles [Address: CLID=0x60321 Type=0x2]  KeyedContainer<LHCb::Particle,Co [0]
StoreExplorerAlg     INFO   | | +--> /LambdaCForPromptCharm [Address: CLID=0x1 Type=0x2]  DataObject
StoreExplorerAlg     INFO   | | | +--> /Particles [Address: CLID=0x60321 Type=0x2]  KeyedContainer<LHCb::Particle,Co [0]
StoreExplorerAlg     INFO   | | +--> /DiCharmForPromptCharm [Address: CLID=0x1 Type=0x2]  DataObject
StoreExplorerAlg     INFO   | | | +--> /Particles [Address: CLID=0x60321 Type=0x2]  KeyedContainer<LHCb::Particle,Co [0]
StoreExplorerAlg     INFO   | | +--> /DstarPromptWithD02HHHHLine [Address: CLID=0x1 Type=0x2]  DataObject
StoreExplorerAlg     INFO   | | | +--> /Particles [Address: CLID=0x60321 Type=0x2]  KeyedContainer<LHCb::Particle,Co [0]
StoreExplorerAlg     INFO   | | +--> /D02MuMuLine [Address: CLID=0x1 Type=0x2]  DataObject
StoreExplorerAlg     INFO   | |   +--> /Particles [Address: CLID=0x60321 Type=0x2]  KeyedContainer<LHCb::Particle,Co [0]
StoreExplorerAlg     INFO     +--> /Particle2LHCbIDMap [Address: CLID=0x370 Type=0x2]  DaVinci::Map::Particle2LHCbIDs
TESFingerPrint      DEBUG ==> Execute
IODataManager        INFO Referring to dataset Reco12-Stripping17.mdst by its file ID:6AA84BBC-D7CD-E811-9B3D-02163E01BA24
EventSelector     SUCCESS Reading Event record 2. Record number within stream 1: 2
PrintHeader       WARNING PrintHeader:: No ODIN Header StatusCode=FAILURE
StoreExplorerAlg     INFO ========= /Event[0x15af4eb0@EventDataSvc]:
StoreExplorerAlg     INFO +--> /Event [Address: CLID=0x1 Type=0x2]  DataObject
StoreExplorerAlg     INFO | +--> /Rec [Address: CLID=0x1 Type=0x2]  DataObject
StoreExplorerAlg     INFO | | +--> /Header [Address: CLID=0x69 Type=0x2]  LHCb::RecHeader
StoreExplorerAlg     INFO | | +--> /Status [Address: CLID=0x1389 Type=0x2]  LHCb::ProcStatus
StoreExplorerAlg     INFO | | +--> /Summary [Address: CLID=0x6a Type=0x2]  LHCb::RecSummary
StoreExplorerAlg     INFO | +--> /Trigger [Address: CLID=0x1 Type=0x2]  DataObject
StoreExplorerAlg     INFO | | +--> /RawEvent [Address: CLID=0x3ea Type=0x2]  LHCb::RawEvent
StoreExplorerAlg     INFO | +--> /Strip [Address: CLID=0x1 Type=0x2]  DataObject
StoreExplorerAlg     INFO | | +--> /Phys [Address: CLID=0x1 Type=0x2]  DataObject
StoreExplorerAlg     INFO | |   +--> /DecReports [Address: CLID=0x1d61 Type=0x2]  LHCb::HltDecReports
StoreExplorerAlg     INFO   +--> /Charm [Address: CLID=0x1 Type=0x2]  DataObject
StoreExplorerAlg     INFO   | +--> /Rec [Address: CLID=0x1 Type=0x2]  DataObject
StoreExplorerAlg     INFO   | | +--> /Vertex [Address: CLID=0x1 Type=0x2]  DataObject
StoreExplorerAlg     INFO   | | | +--> /Primary [Address: CLID=0x6272e Type=0x2]  KeyedContainer<LHCb::RecVertex,C [0x3]
StoreExplorerAlg     INFO   | | | +--> /Weights [Address: CLID=0x6272f Type=0x2]  KeyedContainer<LHCb::WeightsVect [0x3]
StoreExplorerAlg     INFO   | | +--> /ProtoP [Address: CLID=0x1 Type=0x2]  DataObject
StoreExplorerAlg     INFO   | | | +--> /Charged [Address: CLID=0x60323 Type=0x2]  KeyedContainer<LHCb::ProtoPartic [0x2]
StoreExplorerAlg     INFO   | | +--> /Track [Address: CLID=0x1 Type=0x2]  DataObject
StoreExplorerAlg     INFO   | | | +--> /Best [Address: CLID=0x6271a Type=0x2]  KeyedContainer<LHCb::Event::v1:: [0x2]
StoreExplorerAlg     INFO   | | +--> /Rich [Address: CLID=0x1 Type=0x2]  DataObject
StoreExplorerAlg     INFO   | | | +--> /PIDs [Address: CLID=0x63072 Type=0x2]  KeyedContainer<LHCb::RichPID,Con [0x2]
StoreExplorerAlg     INFO   | | +--> /Muon [Address: CLID=0x1 Type=0x2]  DataObject
StoreExplorerAlg     INFO   | | | +--> /MuonPID [Address: CLID=0x62b2a Type=0x2]  KeyedContainer<LHCb::MuonPID,Con [0x2]
StoreExplorerAlg     INFO   | | +--> /Calo [Address: CLID=0x1 Type=0x2]  DataObject
StoreExplorerAlg     INFO   | | | +--> /Photons [Address: CLID=0x607d4 Type=0x2]  KeyedContainer<LHCb::CaloHypo,Co [0x2]
StoreExplorerAlg     INFO   | |   +--> /Electrons [Address: CLID=0x607d4 Type=0x2]  KeyedContainer<LHCb::CaloHypo,Co [0x1]
StoreExplorerAlg     INFO   | +--> /Phys [Address: CLID=0x1 Type=0x2]  DataObject
StoreExplorerAlg     INFO   | | +--> /D2hhh_KPPLine [Address: CLID=0x1 Type=0x2]  DataObject
StoreExplorerAlg     INFO   | | | +--> /Particles [Address: CLID=0x60321 Type=0x2]  KeyedContainer<LHCb::Particle,Co [0]
StoreExplorerAlg     INFO   | | +--> /D2hhh_PPPLine [Address: CLID=0x1 Type=0x2]  DataObject
StoreExplorerAlg     INFO   | | | +--> /Particles [Address: CLID=0x60321 Type=0x2]  KeyedContainer<LHCb::Particle,Co [0]
StoreExplorerAlg     INFO   | | +--> /D2XMuMuMicro_KKLine [Address: CLID=0x1 Type=0x2]  DataObject
StoreExplorerAlg     INFO   | | | +--> /Particles [Address: CLID=0x60321 Type=0x2]  KeyedContainer<LHCb::Particle,Co [0]
StoreExplorerAlg     INFO   | | +--> /D2XMuMuMicro_PiPiLine [Address: CLID=0x1 Type=0x2]  DataObject
StoreExplorerAlg     INFO   | | | +--> /Particles [Address: CLID=0x60321 Type=0x2]  KeyedContainer<LHCb::Particle,Co [0]
StoreExplorerAlg     INFO   | | +--> /D2hhMicroKPiPromptD2KPiLine [Address: CLID=0x1 Type=0x2]  DataObject
StoreExplorerAlg     INFO   | | | +--> /Particles [Address: CLID=0x60321 Type=0x2]  KeyedContainer<LHCb::Particle,Co [0x1]
StoreExplorerAlg     INFO   | | | +--> /decayVertices [Address: CLID=0x60322 Type=0x2]  KeyedContainer<LHCb::Vertex,Cont [0x1]
StoreExplorerAlg     INFO   | | | +--> /Particle2VertexRelations [Address: CLID=0xea9168dc Type=0x2]  LHCb::Relation1D<LHCb::Particle,
StoreExplorerAlg     INFO   | | | +--> /ReFitPvs_Charm_PVs [Address: CLID=0x6272e Type=0x2]  KeyedContainer<LHCb::RecVertex,C [0x1]
StoreExplorerAlg     INFO   | | | +--> /BestPV_Charm_P2PV [Address: CLID=0xea9168dc Type=0x2]  LHCb::Relation1D<LHCb::Particle,
StoreExplorerAlg     INFO   | | +--> /StdAllNoPIDsPions [Address: CLID=0x1 Type=0x2]  DataObject
StoreExplorerAlg     INFO   | | | +--> /Particles [Address: CLID=0x60321 Type=0x2]  KeyedContainer<LHCb::Particle,Co [0x1]
StoreExplorerAlg     INFO   | | +--> /StdAllNoPIDsKaons [Address: CLID=0x1 Type=0x2]  DataObject
StoreExplorerAlg     INFO   | | | +--> /Particles [Address: CLID=0x60321 Type=0x2]  KeyedContainer<LHCb::Particle,Co [0x1]
StoreExplorerAlg     INFO   | | +--> /DsForPromptCharm [Address: CLID=0x1 Type=0x2]  DataObject
StoreExplorerAlg     INFO   | | | +--> /Particles [Address: CLID=0x60321 Type=0x2]  KeyedContainer<LHCb::Particle,Co [0]
StoreExplorerAlg     INFO   | | +--> /DForPromptCharm [Address: CLID=0x1 Type=0x2]  DataObject
StoreExplorerAlg     INFO   | | | +--> /Particles [Address: CLID=0x60321 Type=0x2]  KeyedContainer<LHCb::Particle,Co [0]
StoreExplorerAlg     INFO   | | +--> /LambdaCForPromptCharm [Address: CLID=0x1 Type=0x2]  DataObject
StoreExplorerAlg     INFO   | | | +--> /Particles [Address: CLID=0x60321 Type=0x2]  KeyedContainer<LHCb::Particle,Co [0]
StoreExplorerAlg     INFO   | | +--> /DiCharmForPromptCharm [Address: CLID=0x1 Type=0x2]  DataObject
StoreExplorerAlg     INFO   | | | +--> /Particles [Address: CLID=0x60321 Type=0x2]  KeyedContainer<LHCb::Particle,Co [0]
StoreExplorerAlg     INFO   | | +--> /DstarPromptWithD02HHHHLine [Address: CLID=0x1 Type=0x2]  DataObject
StoreExplorerAlg     INFO   | | | +--> /Particles [Address: CLID=0x60321 Type=0x2]  KeyedContainer<LHCb::Particle,Co [0]
StoreExplorerAlg     INFO   | | +--> /D02MuMuLine [Address: CLID=0x1 Type=0x2]  DataObject
StoreExplorerAlg     INFO   | |   +--> /Particles [Address: CLID=0x60321 Type=0x2]  KeyedContainer<LHCb::Particle,Co [0]
StoreExplorerAlg     INFO     +--> /Particle2LHCbIDMap [Address: CLID=0x370 Type=0x2]  DaVinci::Map::Particle2LHCbIDs
TESFingerPrint      DEBUG ==> Execute
EventSelector     SUCCESS Reading Event record 3. Record number within stream 1: 3
PrintHeader       WARNING PrintHeader:: No ODIN Header StatusCode=FAILURE
StoreExplorerAlg     INFO ========= /Event[0x1cfd90b0@EventDataSvc]:
StoreExplorerAlg     INFO +--> /Event [Address: CLID=0x1 Type=0x2]  DataObject
StoreExplorerAlg     INFO | +--> /Rec [Address: CLID=0x1 Type=0x2]  DataObject
StoreExplorerAlg     INFO | | +--> /Header [Address: CLID=0x69 Type=0x2]  LHCb::RecHeader
StoreExplorerAlg     INFO | | +--> /Status [Address: CLID=0x1389 Type=0x2]  LHCb::ProcStatus
StoreExplorerAlg     INFO | | +--> /Summary [Address: CLID=0x6a Type=0x2]  LHCb::RecSummary
StoreExplorerAlg     INFO | +--> /Trigger [Address: CLID=0x1 Type=0x2]  DataObject
StoreExplorerAlg     INFO | | +--> /RawEvent [Address: CLID=0x3ea Type=0x2]  LHCb::RawEvent
StoreExplorerAlg     INFO | +--> /Strip [Address: CLID=0x1 Type=0x2]  DataObject
StoreExplorerAlg     INFO | | +--> /Phys [Address: CLID=0x1 Type=0x2]  DataObject
StoreExplorerAlg     INFO | |   +--> /DecReports [Address: CLID=0x1d61 Type=0x2]  LHCb::HltDecReports
StoreExplorerAlg     INFO   +--> /Charm [Address: CLID=0x1 Type=0x2]  DataObject
StoreExplorerAlg     INFO   | +--> /Rec [Address: CLID=0x1 Type=0x2]  DataObject
StoreExplorerAlg     INFO   | | +--> /Vertex [Address: CLID=0x1 Type=0x2]  DataObject
StoreExplorerAlg     INFO   | | | +--> /Primary [Address: CLID=0x6272e Type=0x2]  KeyedContainer<LHCb::RecVertex,C [0x1]
StoreExplorerAlg     INFO   | | | +--> /Weights [Address: CLID=0x6272f Type=0x2]  KeyedContainer<LHCb::WeightsVect [0x1]
StoreExplorerAlg     INFO   | | +--> /ProtoP [Address: CLID=0x1 Type=0x2]  DataObject
StoreExplorerAlg     INFO   | | | +--> /Charged [Address: CLID=0x60323 Type=0x2]  KeyedContainer<LHCb::ProtoPartic [0x4]
StoreExplorerAlg     INFO   | | +--> /Track [Address: CLID=0x1 Type=0x2]  DataObject
StoreExplorerAlg     INFO   | | | +--> /Best [Address: CLID=0x6271a Type=0x2]  KeyedContainer<LHCb::Event::v1:: [0x4]
StoreExplorerAlg     INFO   | | +--> /Rich [Address: CLID=0x1 Type=0x2]  DataObject
StoreExplorerAlg     INFO   | | | +--> /PIDs [Address: CLID=0x63072 Type=0x2]  KeyedContainer<LHCb::RichPID,Con [0x4]
StoreExplorerAlg     INFO   | | +--> /Muon [Address: CLID=0x1 Type=0x2]  DataObject
StoreExplorerAlg     INFO   | | | +--> /MuonPID [Address: CLID=0x62b2a Type=0x2]  KeyedContainer<LHCb::MuonPID,Con [0x4]
StoreExplorerAlg     INFO   | | +--> /Calo [Address: CLID=0x1 Type=0x2]  DataObject
StoreExplorerAlg     INFO   | |   +--> /Photons [Address: CLID=0x607d4 Type=0x2]  KeyedContainer<LHCb::CaloHypo,Co [0x2]
StoreExplorerAlg     INFO   | +--> /Phys [Address: CLID=0x1 Type=0x2]  DataObject
StoreExplorerAlg     INFO   | | +--> /D2hhh_KPPLine [Address: CLID=0x1 Type=0x2]  DataObject
StoreExplorerAlg     INFO   | | | +--> /Particles [Address: CLID=0x60321 Type=0x2]  KeyedContainer<LHCb::Particle,Co [0x1]
StoreExplorerAlg     INFO   | | | +--> /decayVertices [Address: CLID=0x60322 Type=0x2]  KeyedContainer<LHCb::Vertex,Cont [0x1]
StoreExplorerAlg     INFO   | | | +--> /Particle2VertexRelations [Address: CLID=0xea9168dc Type=0x2]  LHCb::Relation1D<LHCb::Particle,
StoreExplorerAlg     INFO   | | | +--> /ReFitPvs_Charm_PVs [Address: CLID=0x6272e Type=0x2]  KeyedContainer<LHCb::RecVertex,C [0x1]
StoreExplorerAlg     INFO   | | | +--> /BestPV_Charm_P2PV [Address: CLID=0xea9168dc Type=0x2]  LHCb::Relation1D<LHCb::Particle,
StoreExplorerAlg     INFO   | | +--> /StdAllLoosePions [Address: CLID=0x1 Type=0x2]  DataObject
StoreExplorerAlg     INFO   | | | +--> /Particles [Address: CLID=0x60321 Type=0x2]  KeyedContainer<LHCb::Particle,Co [0x2]
StoreExplorerAlg     INFO   | | +--> /StdAllLooseKaons [Address: CLID=0x1 Type=0x2]  DataObject
StoreExplorerAlg     INFO   | | | +--> /Particles [Address: CLID=0x60321 Type=0x2]  KeyedContainer<LHCb::Particle,Co [0x1]
StoreExplorerAlg     INFO   | | +--> /D2XMuMuMicro_KKLine [Address: CLID=0x1 Type=0x2]  DataObject
StoreExplorerAlg     INFO   | | | +--> /Particles [Address: CLID=0x60321 Type=0x2]  KeyedContainer<LHCb::Particle,Co [0]
StoreExplorerAlg     INFO   | | +--> /D2XMuMuMicro_PiPiLine [Address: CLID=0x1 Type=0x2]  DataObject
StoreExplorerAlg     INFO   | | | +--> /Particles [Address: CLID=0x60321 Type=0x2]  KeyedContainer<LHCb::Particle,Co [0]
StoreExplorerAlg     INFO   | | +--> /D2hhMicroKPiPromptD2KPiLine [Address: CLID=0x1 Type=0x2]  DataObject
StoreExplorerAlg     INFO   | | | +--> /Particles [Address: CLID=0x60321 Type=0x2]  KeyedContainer<LHCb::Particle,Co [0]
StoreExplorerAlg     INFO   | | +--> /DsForPromptCharm [Address: CLID=0x1 Type=0x2]  DataObject
StoreExplorerAlg     INFO   | | | +--> /Particles [Address: CLID=0x60321 Type=0x2]  KeyedContainer<LHCb::Particle,Co [0]
StoreExplorerAlg     INFO   | | +--> /LambdaCForPromptCharm [Address: CLID=0x1 Type=0x2]  DataObject
StoreExplorerAlg     INFO   | | | +--> /Particles [Address: CLID=0x60321 Type=0x2]  KeyedContainer<LHCb::Particle,Co [0]
StoreExplorerAlg     INFO   | | +--> /DiCharmForPromptCharm [Address: CLID=0x1 Type=0x2]  DataObject
StoreExplorerAlg     INFO   | | | +--> /Particles [Address: CLID=0x60321 Type=0x2]  KeyedContainer<LHCb::Particle,Co [0]
StoreExplorerAlg     INFO   | | +--> /D2KS0HPionLine [Address: CLID=0x1 Type=0x2]  DataObject
StoreExplorerAlg     INFO   | | | +--> /Particles [Address: CLID=0x60321 Type=0x2]  KeyedContainer<LHCb::Particle,Co [0]
StoreExplorerAlg     INFO   | | +--> /D2KS0HKaonLine [Address: CLID=0x1 Type=0x2]  DataObject
StoreExplorerAlg     INFO   | | | +--> /Particles [Address: CLID=0x60321 Type=0x2]  KeyedContainer<LHCb::Particle,Co [0]
StoreExplorerAlg     INFO   | | +--> /DstarPromptWithD02HHHHLine [Address: CLID=0x1 Type=0x2]  DataObject
StoreExplorerAlg     INFO   | | | +--> /Particles [Address: CLID=0x60321 Type=0x2]  KeyedContainer<LHCb::Particle,Co [0]
StoreExplorerAlg     INFO   | | +--> /Ccbar2PpbarLine [Address: CLID=0x1 Type=0x2]  DataObject
StoreExplorerAlg     INFO   | | | +--> /Particles [Address: CLID=0x60321 Type=0x2]  KeyedContainer<LHCb::Particle,Co [0]
StoreExplorerAlg     INFO   | | +--> /D02MuMuLine [Address: CLID=0x1 Type=0x2]  DataObject
StoreExplorerAlg     INFO   | | | +--> /Particles [Address: CLID=0x60321 Type=0x2]  KeyedContainer<LHCb::Particle,Co [0]
StoreExplorerAlg     INFO   | | +--> /CharmedAndCharmedStrangeSpectroscopy_DpKs [Address: CLID=0x1 Type=0x2]  DataObject
StoreExplorerAlg     INFO   | | | +--> /Particles [Address: CLID=0x60321 Type=0x2]  KeyedContainer<LHCb::Particle,Co [0]
StoreExplorerAlg     INFO   | | +--> /CharmedAndCharmedStrangeSpectroscopy_DpPim [Address: CLID=0x1 Type=0x2]  DataObject
StoreExplorerAlg     INFO   | | | +--> /Particles [Address: CLID=0x60321 Type=0x2]  KeyedContainer<LHCb::Particle,Co [0x1]
StoreExplorerAlg     INFO   | | | +--> /decayVertices [Address: CLID=0x60322 Type=0x2]  KeyedContainer<LHCb::Vertex,Cont [0x1]
StoreExplorerAlg     INFO   | | | +--> /Particle2VertexRelations [Address: CLID=0xea9168dc Type=0x2]  LHCb::Relation1D<LHCb::Particle,
StoreExplorerAlg     INFO   | | | +--> /ReFitPvs_Charm_PVs [Address: CLID=0x6272e Type=0x2]  KeyedContainer<LHCb::RecVertex,C [0x1]
StoreExplorerAlg     INFO   | | | +--> /BestPV_Charm_P2PV [Address: CLID=0xea9168dc Type=0x2]  LHCb::Relation1D<LHCb::Particle,
StoreExplorerAlg     INFO   | | +--> /CharmedAndCharmedStrangeSpectroscopyPi [Address: CLID=0x1 Type=0x2]  DataObject
StoreExplorerAlg     INFO   | | | +--> /Particles [Address: CLID=0x60321 Type=0x2]  KeyedContainer<LHCb::Particle,Co [0x1]
StoreExplorerAlg     INFO   | | +--> /CharmedAndCharmedStrangeSpectroscopyDplus [Address: CLID=0x1 Type=0x2]  DataObject
StoreExplorerAlg     INFO   | | | +--> /Particles [Address: CLID=0x60321 Type=0x2]  KeyedContainer<LHCb::Particle,Co [0x1]
StoreExplorerAlg     INFO   | |   +--> /decayVertices [Address: CLID=0x60322 Type=0x2]  KeyedContainer<LHCb::Vertex,Cont [0x1]
StoreExplorerAlg     INFO     +--> /Particle2LHCbIDMap [Address: CLID=0x370 Type=0x2]  DaVinci::Map::Particle2LHCbIDs
TESFingerPrint      DEBUG ==> Execute
EventSelector     SUCCESS Reading Event record 4. Record number within stream 1: 4
PrintHeader       WARNING PrintHeader:: No ODIN Header StatusCode=FAILURE
StoreExplorerAlg     INFO ========= /Event[0x15a0c410@EventDataSvc]:
StoreExplorerAlg     INFO +--> /Event [Address: CLID=0x1 Type=0x2]  DataObject
StoreExplorerAlg     INFO | +--> /Rec [Address: CLID=0x1 Type=0x2]  DataObject
StoreExplorerAlg     INFO | | +--> /Header [Address: CLID=0x69 Type=0x2]  LHCb::RecHeader
StoreExplorerAlg     INFO | | +--> /Status [Address: CLID=0x1389 Type=0x2]  LHCb::ProcStatus
StoreExplorerAlg     INFO | | +--> /Summary [Address: CLID=0x6a Type=0x2]  LHCb::RecSummary
StoreExplorerAlg     INFO | +--> /Trigger [Address: CLID=0x1 Type=0x2]  DataObject
StoreExplorerAlg     INFO | | +--> /RawEvent [Address: CLID=0x3ea Type=0x2]  LHCb::RawEvent
StoreExplorerAlg     INFO | +--> /Strip [Address: CLID=0x1 Type=0x2]  DataObject
StoreExplorerAlg     INFO | | +--> /Phys [Address: CLID=0x1 Type=0x2]  DataObject
StoreExplorerAlg     INFO | |   +--> /DecReports [Address: CLID=0x1d61 Type=0x2]  LHCb::HltDecReports
StoreExplorerAlg     INFO   +--> /Charm [Address: CLID=0x1 Type=0x2]  DataObject
StoreExplorerAlg     INFO   | +--> /Rec [Address: CLID=0x1 Type=0x2]  DataObject
StoreExplorerAlg     INFO   | | +--> /Vertex [Address: CLID=0x1 Type=0x2]  DataObject
StoreExplorerAlg     INFO   | | | +--> /Primary [Address: CLID=0x6272e Type=0x2]  KeyedContainer<LHCb::RecVertex,C [0x4]
StoreExplorerAlg     INFO   | | | +--> /Weights [Address: CLID=0x6272f Type=0x2]  KeyedContainer<LHCb::WeightsVect [0x4]
StoreExplorerAlg     INFO   | | +--> /ProtoP [Address: CLID=0x1 Type=0x2]  DataObject
StoreExplorerAlg     INFO   | | | +--> /Charged [Address: CLID=0x60323 Type=0x2]  KeyedContainer<LHCb::ProtoPartic [0x2]
StoreExplorerAlg     INFO   | | +--> /Track [Address: CLID=0x1 Type=0x2]  DataObject
StoreExplorerAlg     INFO   | | | +--> /Best [Address: CLID=0x6271a Type=0x2]  KeyedContainer<LHCb::Event::v1:: [0x2]
StoreExplorerAlg     INFO   | | +--> /Rich [Address: CLID=0x1 Type=0x2]  DataObject
StoreExplorerAlg     INFO   | | | +--> /PIDs [Address: CLID=0x63072 Type=0x2]  KeyedContainer<LHCb::RichPID,Con [0x2]
StoreExplorerAlg     INFO   | | +--> /Muon [Address: CLID=0x1 Type=0x2]  DataObject
StoreExplorerAlg     INFO   | | | +--> /MuonPID [Address: CLID=0x62b2a Type=0x2]  KeyedContainer<LHCb::MuonPID,Con [0x2]
StoreExplorerAlg     INFO   | | +--> /Calo [Address: CLID=0x1 Type=0x2]  DataObject
StoreExplorerAlg     INFO   | | | +--> /Electrons [Address: CLID=0x607d4 Type=0x2]  KeyedContainer<LHCb::CaloHypo,Co [0x1]
StoreExplorerAlg     INFO   | |   +--> /Photons [Address: CLID=0x607d4 Type=0x2]  KeyedContainer<LHCb::CaloHypo,Co [0x1]
StoreExplorerAlg     INFO   | +--> /Phys [Address: CLID=0x1 Type=0x2]  DataObject
StoreExplorerAlg     INFO   | | +--> /D2hhMicroKPiPromptD2KPiLine [Address: CLID=0x1 Type=0x2]  DataObject
StoreExplorerAlg     INFO   | | | +--> /Particles [Address: CLID=0x60321 Type=0x2]  KeyedContainer<LHCb::Particle,Co [0x1]
StoreExplorerAlg     INFO   | | | +--> /decayVertices [Address: CLID=0x60322 Type=0x2]  KeyedContainer<LHCb::Vertex,Cont [0x1]
StoreExplorerAlg     INFO   | | | +--> /Particle2VertexRelations [Address: CLID=0xea9168dc Type=0x2]  LHCb::Relation1D<LHCb::Particle,
StoreExplorerAlg     INFO   | | | +--> /ReFitPvs_Charm_PVs [Address: CLID=0x6272e Type=0x2]  KeyedContainer<LHCb::RecVertex,C [0x1]
StoreExplorerAlg     INFO   | | | +--> /BestPV_Charm_P2PV [Address: CLID=0xea9168dc Type=0x2]  LHCb::Relation1D<LHCb::Particle,
StoreExplorerAlg     INFO   | | +--> /StdAllNoPIDsPions [Address: CLID=0x1 Type=0x2]  DataObject
StoreExplorerAlg     INFO   | | | +--> /Particles [Address: CLID=0x60321 Type=0x2]  KeyedContainer<LHCb::Particle,Co [0x1]
StoreExplorerAlg     INFO   | | +--> /StdAllNoPIDsKaons [Address: CLID=0x1 Type=0x2]  DataObject
StoreExplorerAlg     INFO   | | | +--> /Particles [Address: CLID=0x60321 Type=0x2]  KeyedContainer<LHCb::Particle,Co [0x1]
StoreExplorerAlg     INFO   | | +--> /D02HHForPromptCharm [Address: CLID=0x1 Type=0x2]  DataObject
StoreExplorerAlg     INFO   | | | +--> /Particles [Address: CLID=0x60321 Type=0x2]  KeyedContainer<LHCb::Particle,Co [0x1]
StoreExplorerAlg     INFO   | | | +--> /decayVertices [Address: CLID=0x60322 Type=0x2]  KeyedContainer<LHCb::Vertex,Cont [0x1]
StoreExplorerAlg     INFO   | | | +--> /Particle2VertexRelations [Address: CLID=0xea9168dc Type=0x2]  LHCb::Relation1D<LHCb::Particle,
StoreExplorerAlg     INFO   | | | +--> /ReFitPvs_Charm_PVs [Address: CLID=0x6272e Type=0x2]  KeyedContainer<LHCb::RecVertex,C [0x1]
StoreExplorerAlg     INFO   | | | +--> /BestPV_Charm_P2PV [Address: CLID=0xea9168dc Type=0x2]  LHCb::Relation1D<LHCb::Particle,
StoreExplorerAlg     INFO   | | +--> /SelBasicMesonsForPromptCharm [Address: CLID=0x1 Type=0x2]  DataObject
StoreExplorerAlg     INFO   | | | +--> /Particles [Address: CLID=0x60321 Type=0x2]  KeyedContainer<LHCb::Particle,Co [0x2]
StoreExplorerAlg     INFO   | | +--> /DstarForPromptCharm [Address: CLID=0x1 Type=0x2]  DataObject
StoreExplorerAlg     INFO   | | | +--> /Particles [Address: CLID=0x60321 Type=0x2]  KeyedContainer<LHCb::Particle,Co [0]
StoreExplorerAlg     INFO   | | +--> /DsForPromptCharm [Address: CLID=0x1 Type=0x2]  DataObject
StoreExplorerAlg     INFO   | | | +--> /Particles [Address: CLID=0x60321 Type=0x2]  KeyedContainer<LHCb::Particle,Co [0]
StoreExplorerAlg     INFO   | | +--> /DForPromptCharm [Address: CLID=0x1 Type=0x2]  DataObject
StoreExplorerAlg     INFO   | | | +--> /Particles [Address: CLID=0x60321 Type=0x2]  KeyedContainer<LHCb::Particle,Co [0]
StoreExplorerAlg     INFO   | | +--> /LambdaCForPromptCharm [Address: CLID=0x1 Type=0x2]  DataObject
StoreExplorerAlg     INFO   | | | +--> /Particles [Address: CLID=0x60321 Type=0x2]  KeyedContainer<LHCb::Particle,Co [0]
StoreExplorerAlg     INFO   | | +--> /DiCharmForPromptCharm [Address: CLID=0x1 Type=0x2]  DataObject
StoreExplorerAlg     INFO   | | | +--> /Particles [Address: CLID=0x60321 Type=0x2]  KeyedContainer<LHCb::Particle,Co [0]
StoreExplorerAlg     INFO   | | +--> /DstarPromptWithD02HHHHLine [Address: CLID=0x1 Type=0x2]  DataObject
StoreExplorerAlg     INFO   | | | +--> /Particles [Address: CLID=0x60321 Type=0x2]  KeyedContainer<LHCb::Particle,Co [0]
StoreExplorerAlg     INFO   | | +--> /D02MuMuLine [Address: CLID=0x1 Type=0x2]  DataObject
StoreExplorerAlg     INFO   | | | +--> /Particles [Address: CLID=0x60321 Type=0x2]  KeyedContainer<LHCb::Particle,Co [0]
StoreExplorerAlg     INFO   | | +--> /D02MuMuClbrD02PiPiLine [Address: CLID=0x1 Type=0x2]  DataObject
StoreExplorerAlg     INFO   | | | +--> /Particles [Address: CLID=0x60321 Type=0x2]  KeyedContainer<LHCb::Particle,Co [0]
StoreExplorerAlg     INFO   | | +--> /CharmedAndCharmedStrangeSpectroscopy_D0K [Address: CLID=0x1 Type=0x2]  DataObject
StoreExplorerAlg     INFO   | | | +--> /Particles [Address: CLID=0x60321 Type=0x2]  KeyedContainer<LHCb::Particle,Co [0]
StoreExplorerAlg     INFO   | | +--> /CharmedAndCharmedStrangeSpectroscopy_D0Pip [Address: CLID=0x1 Type=0x2]  DataObject
StoreExplorerAlg     INFO   | |   +--> /Particles [Address: CLID=0x60321 Type=0x2]  KeyedContainer<LHCb::Particle,Co [0]
StoreExplorerAlg     INFO     +--> /Particle2LHCbIDMap [Address: CLID=0x370 Type=0x2]  DaVinci::Map::Particle2LHCbIDs
TESFingerPrint      DEBUG ==> Execute
EventSelector     SUCCESS Reading Event record 5. Record number within stream 1: 5
PrintHeader       WARNING PrintHeader:: No ODIN Header StatusCode=FAILURE
StoreExplorerAlg     INFO ========= /Event[0x1f5a1180@EventDataSvc]:
StoreExplorerAlg     INFO +--> /Event [Address: CLID=0x1 Type=0x2]  DataObject
StoreExplorerAlg     INFO | +--> /Rec [Address: CLID=0x1 Type=0x2]  DataObject
StoreExplorerAlg     INFO | | +--> /Header [Address: CLID=0x69 Type=0x2]  LHCb::RecHeader
StoreExplorerAlg     INFO | | +--> /Status [Address: CLID=0x1389 Type=0x2]  LHCb::ProcStatus
StoreExplorerAlg     INFO | | +--> /Summary [Address: CLID=0x6a Type=0x2]  LHCb::RecSummary
StoreExplorerAlg     INFO | +--> /Trigger [Address: CLID=0x1 Type=0x2]  DataObject
StoreExplorerAlg     INFO | | +--> /RawEvent [Address: CLID=0x3ea Type=0x2]  LHCb::RawEvent
StoreExplorerAlg     INFO | +--> /Strip [Address: CLID=0x1 Type=0x2]  DataObject
StoreExplorerAlg     INFO | | +--> /Phys [Address: CLID=0x1 Type=0x2]  DataObject
StoreExplorerAlg     INFO | |   +--> /DecReports [Address: CLID=0x1d61 Type=0x2]  LHCb::HltDecReports
StoreExplorerAlg     INFO   +--> /Charm [Address: CLID=0x1 Type=0x2]  DataObject
StoreExplorerAlg     INFO   | +--> /Rec [Address: CLID=0x1 Type=0x2]  DataObject
StoreExplorerAlg     INFO   | | +--> /Vertex [Address: CLID=0x1 Type=0x2]  DataObject
StoreExplorerAlg     INFO   | | | +--> /Primary [Address: CLID=0x6272e Type=0x2]  KeyedContainer<LHCb::RecVertex,C [0x3]
StoreExplorerAlg     INFO   | | | +--> /Weights [Address: CLID=0x6272f Type=0x2]  KeyedContainer<LHCb::WeightsVect [0x3]
StoreExplorerAlg     INFO   | | +--> /ProtoP [Address: CLID=0x1 Type=0x2]  DataObject
StoreExplorerAlg     INFO   | | | +--> /Charged [Address: CLID=0x60323 Type=0x2]  KeyedContainer<LHCb::ProtoPartic [0x8]
StoreExplorerAlg     INFO   | | +--> /Track [Address: CLID=0x1 Type=0x2]  DataObject
StoreExplorerAlg     INFO   | | | +--> /Best [Address: CLID=0x6271a Type=0x2]  KeyedContainer<LHCb::Event::v1:: [0x8]
StoreExplorerAlg     INFO   | | +--> /Rich [Address: CLID=0x1 Type=0x2]  DataObject
StoreExplorerAlg     INFO   | | | +--> /PIDs [Address: CLID=0x63072 Type=0x2]  KeyedContainer<LHCb::RichPID,Con [0x8]
StoreExplorerAlg     INFO   | | +--> /Muon [Address: CLID=0x1 Type=0x2]  DataObject
StoreExplorerAlg     INFO   | | | +--> /MuonPID [Address: CLID=0x62b2a Type=0x2]  KeyedContainer<LHCb::MuonPID,Con [0x8]
StoreExplorerAlg     INFO   | | +--> /Calo [Address: CLID=0x1 Type=0x2]  DataObject
StoreExplorerAlg     INFO   | | | +--> /Electrons [Address: CLID=0x607d4 Type=0x2]  KeyedContainer<LHCb::CaloHypo,Co [0x1]
StoreExplorerAlg     INFO   | |   +--> /Photons [Address: CLID=0x607d4 Type=0x2]  KeyedContainer<LHCb::CaloHypo,Co [0x4]
StoreExplorerAlg     INFO   | +--> /Phys [Address: CLID=0x1 Type=0x2]  DataObject
StoreExplorerAlg     INFO   | | +--> /D2hhh_PPPLine [Address: CLID=0x1 Type=0x2]  DataObject
StoreExplorerAlg     INFO   | | | +--> /Particles [Address: CLID=0x60321 Type=0x2]  KeyedContainer<LHCb::Particle,Co [0]
StoreExplorerAlg     INFO   | | +--> /D2XMuMuMicro_KKLine [Address: CLID=0x1 Type=0x2]  DataObject
StoreExplorerAlg     INFO   | | | +--> /Particles [Address: CLID=0x60321 Type=0x2]  KeyedContainer<LHCb::Particle,Co [0]
StoreExplorerAlg     INFO   | | +--> /D2XMuMuMicro_PiPiLine [Address: CLID=0x1 Type=0x2]  DataObject
StoreExplorerAlg     INFO   | | | +--> /Particles [Address: CLID=0x60321 Type=0x2]  KeyedContainer<LHCb::Particle,Co [0]
StoreExplorerAlg     INFO   | | +--> /D2hhMicroKPiPromptD2KPiLine [Address: CLID=0x1 Type=0x2]  DataObject
StoreExplorerAlg     INFO   | | | +--> /Particles [Address: CLID=0x60321 Type=0x2]  KeyedContainer<LHCb::Particle,Co [0]
StoreExplorerAlg     INFO   | | +--> /DsForPromptCharm [Address: CLID=0x1 Type=0x2]  DataObject
StoreExplorerAlg     INFO   | | | +--> /Particles [Address: CLID=0x60321 Type=0x2]  KeyedContainer<LHCb::Particle,Co [0]
StoreExplorerAlg     INFO   | | +--> /DForPromptCharm [Address: CLID=0x1 Type=0x2]  DataObject
StoreExplorerAlg     INFO   | | | +--> /Particles [Address: CLID=0x60321 Type=0x2]  KeyedContainer<LHCb::Particle,Co [0]
StoreExplorerAlg     INFO   | | +--> /LambdaCForPromptCharm [Address: CLID=0x1 Type=0x2]  DataObject
StoreExplorerAlg     INFO   | | | +--> /Particles [Address: CLID=0x60321 Type=0x2]  KeyedContainer<LHCb::Particle,Co [0]
StoreExplorerAlg     INFO   | | +--> /DiCharmForPromptCharm [Address: CLID=0x1 Type=0x2]  DataObject
StoreExplorerAlg     INFO   | | | +--> /Particles [Address: CLID=0x60321 Type=0x2]  KeyedContainer<LHCb::Particle,Co [0]
StoreExplorerAlg     INFO   | | +--> /DstarD02KMuNuPrescaledRSLine [Address: CLID=0x1 Type=0x2]  DataObject
StoreExplorerAlg     INFO   | | | +--> /Particles [Address: CLID=0x60321 Type=0x2]  KeyedContainer<LHCb::Particle,Co [0x1]
StoreExplorerAlg     INFO   | | | +--> /decayVertices [Address: CLID=0x60322 Type=0x2]  KeyedContainer<LHCb::Vertex,Cont [0x1]
StoreExplorerAlg     INFO   | | | +--> /Particle2VertexRelations [Address: CLID=0xea9168dc Type=0x2]  LHCb::Relation1D<LHCb::Particle,
StoreExplorerAlg     INFO   | | | +--> /ReFitPvs_Charm_PVs [Address: CLID=0x6272e Type=0x2]  KeyedContainer<LHCb::RecVertex,C [0x1]
StoreExplorerAlg     INFO   | | | +--> /BestPV_Charm_P2PV [Address: CLID=0xea9168dc Type=0x2]  LHCb::Relation1D<LHCb::Particle,
StoreExplorerAlg     INFO   | | +--> /PionsForDstarD02KMuNuPrescaled [Address: CLID=0x1 Type=0x2]  DataObject
StoreExplorerAlg     INFO   | | | +--> /Particles [Address: CLID=0x60321 Type=0x2]  KeyedContainer<LHCb::Particle,Co [0x1]
StoreExplorerAlg     INFO   | | +--> /D0RSForDstarD02KMuNuPrescaled [Address: CLID=0x1 Type=0x2]  DataObject
StoreExplorerAlg     INFO   | | | +--> /Particles [Address: CLID=0x60321 Type=0x2]  KeyedContainer<LHCb::Particle,Co [0x1]
StoreExplorerAlg     INFO   | | | +--> /decayVertices [Address: CLID=0x60322 Type=0x2]  KeyedContainer<LHCb::Vertex,Cont [0x1]
StoreExplorerAlg     INFO   | | +--> /KaonsForDstarD02KMuNuPrescaled [Address: CLID=0x1 Type=0x2]  DataObject
StoreExplorerAlg     INFO   | | | +--> /Particles [Address: CLID=0x60321 Type=0x2]  KeyedContainer<LHCb::Particle,Co [0x1]
StoreExplorerAlg     INFO   | | +--> /MuonsForDstarD02KMuNuPrescaled [Address: CLID=0x1 Type=0x2]  DataObject
StoreExplorerAlg     INFO   | | | +--> /Particles [Address: CLID=0x60321 Type=0x2]  KeyedContainer<LHCb::Particle,Co [0x1]
StoreExplorerAlg     INFO   | | +--> /DstarPromptWithD02HHHHLine [Address: CLID=0x1 Type=0x2]  DataObject
StoreExplorerAlg     INFO   | | | +--> /Particles [Address: CLID=0x60321 Type=0x2]  KeyedContainer<LHCb::Particle,Co [0x1]
StoreExplorerAlg     INFO   | | | +--> /decayVertices [Address: CLID=0x60322 Type=0x2]  KeyedContainer<LHCb::Vertex,Cont [0x1]
StoreExplorerAlg     INFO   | | | +--> /Particle2VertexRelations [Address: CLID=0xea9168dc Type=0x2]  LHCb::Relation1D<LHCb::Particle,
StoreExplorerAlg     INFO   | | | +--> /ReFitPvs_Charm_PVs [Address: CLID=0x6272e Type=0x2]  KeyedContainer<LHCb::RecVertex,C [0x1]
StoreExplorerAlg     INFO   | | | +--> /BestPV_Charm_P2PV [Address: CLID=0xea9168dc Type=0x2]  LHCb::Relation1D<LHCb::Particle,
StoreExplorerAlg     INFO   | | +--> /StdAllNoPIDsPions [Address: CLID=0x1 Type=0x2]  DataObject
StoreExplorerAlg     INFO   | | | +--> /Particles [Address: CLID=0x60321 Type=0x2]  KeyedContainer<LHCb::Particle,Co [0x1]
StoreExplorerAlg     INFO   | | +--> /D02hhhhForDstarPromptWithD02HHHH [Address: CLID=0x1 Type=0x2]  DataObject
StoreExplorerAlg     INFO   | | | +--> /Particles [Address: CLID=0x60321 Type=0x2]  KeyedContainer<LHCb::Particle,Co [0x1]
StoreExplorerAlg     INFO   | | | +--> /decayVertices [Address: CLID=0x60322 Type=0x2]  KeyedContainer<LHCb::Vertex,Cont [0x1]
StoreExplorerAlg     INFO   | | +--> /StdAllLoosePions [Address: CLID=0x1 Type=0x2]  DataObject
StoreExplorerAlg     INFO   | | | +--> /Particles [Address: CLID=0x60321 Type=0x2]  KeyedContainer<LHCb::Particle,Co [0x3]
StoreExplorerAlg     INFO   | | +--> /StdAllLooseKaons [Address: CLID=0x1 Type=0x2]  DataObject
StoreExplorerAlg     INFO   | | | +--> /Particles [Address: CLID=0x60321 Type=0x2]  KeyedContainer<LHCb::Particle,Co [0x1]
StoreExplorerAlg     INFO   | | +--> /D02MuMuLine [Address: CLID=0x1 Type=0x2]  DataObject
StoreExplorerAlg     INFO   | |   +--> /Particles [Address: CLID=0x60321 Type=0x2]  KeyedContainer<LHCb::Particle,Co [0]
StoreExplorerAlg     INFO     +--> /Particle2LHCbIDMap [Address: CLID=0x370 Type=0x2]  DaVinci::Map::Particle2LHCbIDs
TESFingerPrint      DEBUG ==> Execute
ApplicationMgr       INFO Application Manager Stopped successfully
PrintHeader          INFO Filtered 5 events
PrintHeader       SUCCESS Exceptions/Errors/Warnings/Infos Statistics : 0/0/1/0
PrintHeader       SUCCESS  #WARNINGS   = 5        Message = 'No ODIN Header'
TESFingerPrint      DEBUG ==> Finalize
TESFingerPrint    VERBOSE ==> TES DataObject statistics: {/Event: 5, /Event/Charm: 5, /Event/Charm/Particle2LHCbIDMap: 5, /Event/Charm/Phys: 5, /Event/Charm/Phys/Ccbar2PpbarLine: 1, /Event/Charm/Phys/Ccbar2PpbarLine/Particles: 1, /Event/Charm/Phys/CharmedAndCharmedStrangeSpectroscopyDplus: 1, /Event/Charm/Phys/CharmedAndCharmedStrangeSpectroscopyDplus/Particles: 1, /Event/Charm/Phys/CharmedAndCharmedStrangeSpectroscopyDplus/decayVertices: 1, /Event/Charm/Phys/CharmedAndCharmedStrangeSpectroscopyPi: 1, /Event/Charm/Phys/CharmedAndCharmedStrangeSpectroscopyPi/Particles: 1, /Event/Charm/Phys/CharmedAndCharmedStrangeSpectroscopy_D0K: 1, /Event/Charm/Phys/CharmedAndCharmedStrangeSpectroscopy_D0K/Particles: 1, /Event/Charm/Phys/CharmedAndCharmedStrangeSpectroscopy_D0Pip: 1, /Event/Charm/Phys/CharmedAndCharmedStrangeSpectroscopy_D0Pip/Particles: 1, /Event/Charm/Phys/CharmedAndCharmedStrangeSpectroscopy_DpKs: 1, /Event/Charm/Phys/CharmedAndCharmedStrangeSpectroscopy_DpKs/Particles: 1, /Event/Charm/Phys/CharmedAndCharmedStrangeSpectroscopy_DpPim: 1, /Event/Charm/Phys/CharmedAndCharmedStrangeSpectroscopy_DpPim/BestPV_Charm_P2PV: 1, /Event/Charm/Phys/CharmedAndCharmedStrangeSpectroscopy_DpPim/Particle2VertexRelations: 1, /Event/Charm/Phys/CharmedAndCharmedStrangeSpectroscopy_DpPim/Particles: 1, /Event/Charm/Phys/CharmedAndCharmedStrangeSpectroscopy_DpPim/ReFitPvs_Charm_PVs: 1, /Event/Charm/Phys/CharmedAndCharmedStrangeSpectroscopy_DpPim/decayVertices: 1, /Event/Charm/Phys/D02HHForPromptCharm: 1, /Event/Charm/Phys/D02HHForPromptCharm/BestPV_Charm_P2PV: 1, /Event/Charm/Phys/D02HHForPromptCharm/Particle2VertexRelations: 1, /Event/Charm/Phys/D02HHForPromptCharm/Particles: 1, /Event/Charm/Phys/D02HHForPromptCharm/ReFitPvs_Charm_PVs: 1, /Event/Charm/Phys/D02HHForPromptCharm/decayVertices: 1, /Event/Charm/Phys/D02MuMuClbrD02PiPiLine: 1, /Event/Charm/Phys/D02MuMuClbrD02PiPiLine/Particles: 1, /Event/Charm/Phys/D02MuMuLine: 5, /Event/Charm/Phys/D02MuMuLine/Particles: 5, /Event/Charm/Phys/D02hhhhForDstarPromptWithD02HHHH: 1, /Event/Charm/Phys/D02hhhhForDstarPromptWithD02HHHH/Particles: 1, /Event/Charm/Phys/D02hhhhForDstarPromptWithD02HHHH/decayVertices: 1, /Event/Charm/Phys/D0RSForDstarD02KMuNuPrescaled: 1, /Event/Charm/Phys/D0RSForDstarD02KMuNuPrescaled/Particles: 1, /Event/Charm/Phys/D0RSForDstarD02KMuNuPrescaled/decayVertices: 1, /Event/Charm/Phys/D2KS0HKaonLine: 1, /Event/Charm/Phys/D2KS0HKaonLine/Particles: 1, /Event/Charm/Phys/D2KS0HPionLine: 1, /Event/Charm/Phys/D2KS0HPionLine/Particles: 1, /Event/Charm/Phys/D2XMuMuMicro_KKLine: 3, /Event/Charm/Phys/D2XMuMuMicro_KKLine/Particles: 3, /Event/Charm/Phys/D2XMuMuMicro_PiPiLine: 3, /Event/Charm/Phys/D2XMuMuMicro_PiPiLine/Particles: 3, /Event/Charm/Phys/D2hhMicroKPiPromptD2KPiLine: 5, /Event/Charm/Phys/D2hhMicroKPiPromptD2KPiLine/BestPV_Charm_P2PV: 3, /Event/Charm/Phys/D2hhMicroKPiPromptD2KPiLine/Particle2VertexRelations: 3, /Event/Charm/Phys/D2hhMicroKPiPromptD2KPiLine/Particles: 5, /Event/Charm/Phys/D2hhMicroKPiPromptD2KPiLine/ReFitPvs_Charm_PVs: 3, /Event/Charm/Phys/D2hhMicroKPiPromptD2KPiLine/decayVertices: 3, /Event/Charm/Phys/D2hhh_KPPLine: 3, /Event/Charm/Phys/D2hhh_KPPLine/BestPV_Charm_P2PV: 1, /Event/Charm/Phys/D2hhh_KPPLine/Particle2VertexRelations: 1, /Event/Charm/Phys/D2hhh_KPPLine/Particles: 3, /Event/Charm/Phys/D2hhh_KPPLine/ReFitPvs_Charm_PVs: 1, /Event/Charm/Phys/D2hhh_KPPLine/decayVertices: 1, /Event/Charm/Phys/D2hhh_PPPLine: 3, /Event/Charm/Phys/D2hhh_PPPLine/Particles: 3, /Event/Charm/Phys/DForPromptCharm: 3, /Event/Charm/Phys/DForPromptCharm/Particles: 3, /Event/Charm/Phys/DiCharmForPromptCharm: 5, /Event/Charm/Phys/DiCharmForPromptCharm/Particles: 5, /Event/Charm/Phys/DsForPromptCharm: 5, /Event/Charm/Phys/DsForPromptCharm/Particles: 5, /Event/Charm/Phys/DstarD02KMuNuPrescaledRSLine: 1, /Event/Charm/Phys/DstarD02KMuNuPrescaledRSLine/BestPV_Charm_P2PV: 1, /Event/Charm/Phys/DstarD02KMuNuPrescaledRSLine/Particle2VertexRelations: 1, /Event/Charm/Phys/DstarD02KMuNuPrescaledRSLine/Particles: 1, /Event/Charm/Phys/DstarD02KMuNuPrescaledRSLine/ReFitPvs_Charm_PVs: 1, /Event/Charm/Phys/DstarD02KMuNuPrescaledRSLine/decayVertices: 1, /Event/Charm/Phys/DstarForPromptCharm: 2, /Event/Charm/Phys/DstarForPromptCharm/Particles: 2, /Event/Charm/Phys/DstarPromptWithD02HHHHLine: 5, /Event/Charm/Phys/DstarPromptWithD02HHHHLine/BestPV_Charm_P2PV: 1, /Event/Charm/Phys/DstarPromptWithD02HHHHLine/Particle2VertexRelations: 1, /Event/Charm/Phys/DstarPromptWithD02HHHHLine/Particles: 5, /Event/Charm/Phys/DstarPromptWithD02HHHHLine/ReFitPvs_Charm_PVs: 1, /Event/Charm/Phys/DstarPromptWithD02HHHHLine/decayVertices: 1, /Event/Charm/Phys/DstarPromptWithD02HHHHNoPIDLine: 1, /Event/Charm/Phys/DstarPromptWithD02HHHHNoPIDLine/Particles: 1, /Event/Charm/Phys/KaonsForDstarD02KMuNuPrescaled: 1, /Event/Charm/Phys/KaonsForDstarD02KMuNuPrescaled/Particles: 1, /Event/Charm/Phys/LambdaCForPromptCharm: 5, /Event/Charm/Phys/LambdaCForPromptCharm/Particles: 5, /Event/Charm/Phys/MuonsForDstarD02KMuNuPrescaled: 1, /Event/Charm/Phys/MuonsForDstarD02KMuNuPrescaled/Particles: 1, /Event/Charm/Phys/PionsForDstarD02KMuNuPrescaled: 1, /Event/Charm/Phys/PionsForDstarD02KMuNuPrescaled/Particles: 1, /Event/Charm/Phys/SelBasicMesonsForPromptCharm: 1, /Event/Charm/Phys/SelBasicMesonsForPromptCharm/Particles: 1, /Event/Charm/Phys/StdAllLooseKaons: 2, /Event/Charm/Phys/StdAllLooseKaons/Particles: 2, /Event/Charm/Phys/StdAllLoosePions: 2, /Event/Charm/Phys/StdAllLoosePions/Particles: 2, /Event/Charm/Phys/StdAllNoPIDsKaons: 3, /Event/Charm/Phys/StdAllNoPIDsKaons/Particles: 3, /Event/Charm/Phys/StdAllNoPIDsPions: 4, /Event/Charm/Phys/StdAllNoPIDsPions/Particles: 4, /Event/Charm/Rec: 5, /Event/Charm/Rec/Calo: 5, /Event/Charm/Rec/Calo/Electrons: 3, /Event/Charm/Rec/Calo/Photons: 5, /Event/Charm/Rec/Muon: 5, /Event/Charm/Rec/Muon/MuonPID: 5, /Event/Charm/Rec/ProtoP: 5, /Event/Charm/Rec/ProtoP/Charged: 5, /Event/Charm/Rec/Rich: 5, /Event/Charm/Rec/Rich/PIDs: 5, /Event/Charm/Rec/Track: 5, /Event/Charm/Rec/Track/Best: 5, /Event/Charm/Rec/Vertex: 5, /Event/Charm/Rec/Vertex/Primary: 5, /Event/Charm/Rec/Vertex/Weights: 5, /Event/Rec: 5, /Event/Rec/Header: 5, /Event/Rec/Status: 5, /Event/Rec/Summary: 5, /Event/Strip: 5, /Event/Strip/Phys: 5, /Event/Strip/Phys/DecReports: 5, /Event/Trigger: 5, /Event/Trigger/RawEvent: 5}
TESFingerPrint    VERBOSE ==> TES Container sizes: {/Event/Charm/Phys/Ccbar2PpbarLine/Particles: {0: 1}, /Event/Charm/Phys/CharmedAndCharmedStrangeSpectroscopyDplus/Particles: {1: 1}, /Event/Charm/Phys/CharmedAndCharmedStrangeSpectroscopyDplus/decayVertices: {1: 1}, /Event/Charm/Phys/CharmedAndCharmedStrangeSpectroscopyPi/Particles: {1: 1}, /Event/Charm/Phys/CharmedAndCharmedStrangeSpectroscopy_D0K/Particles: {0: 1}, /Event/Charm/Phys/CharmedAndCharmedStrangeSpectroscopy_D0Pip/Particles: {0: 1}, /Event/Charm/Phys/CharmedAndCharmedStrangeSpectroscopy_DpKs/Particles: {0: 1}, /Event/Charm/Phys/CharmedAndCharmedStrangeSpectroscopy_DpPim/Particles: {1: 1}, /Event/Charm/Phys/CharmedAndCharmedStrangeSpectroscopy_DpPim/ReFitPvs_Charm_PVs: {1: 1}, /Event/Charm/Phys/CharmedAndCharmedStrangeSpectroscopy_DpPim/decayVertices: {1: 1}, /Event/Charm/Phys/D02HHForPromptCharm/Particles: {1: 1}, /Event/Charm/Phys/D02HHForPromptCharm/ReFitPvs_Charm_PVs: {1: 1}, /Event/Charm/Phys/D02HHForPromptCharm/decayVertices: {1: 1}, /Event/Charm/Phys/D02MuMuClbrD02PiPiLine/Particles: {0: 1}, /Event/Charm/Phys/D02MuMuLine/Particles: {0: 5}, /Event/Charm/Phys/D02hhhhForDstarPromptWithD02HHHH/Particles: {1: 1}, /Event/Charm/Phys/D02hhhhForDstarPromptWithD02HHHH/decayVertices: {1: 1}, /Event/Charm/Phys/D0RSForDstarD02KMuNuPrescaled/Particles: {1: 1}, /Event/Charm/Phys/D0RSForDstarD02KMuNuPrescaled/decayVertices: {1: 1}, /Event/Charm/Phys/D2KS0HKaonLine/Particles: {0: 1}, /Event/Charm/Phys/D2KS0HPionLine/Particles: {0: 1}, /Event/Charm/Phys/D2XMuMuMicro_KKLine/Particles: {0: 3}, /Event/Charm/Phys/D2XMuMuMicro_PiPiLine/Particles: {0: 3}, /Event/Charm/Phys/D2hhMicroKPiPromptD2KPiLine/Particles: {0: 2, 1: 3}, /Event/Charm/Phys/D2hhMicroKPiPromptD2KPiLine/ReFitPvs_Charm_PVs: {1: 3}, /Event/Charm/Phys/D2hhMicroKPiPromptD2KPiLine/decayVertices: {1: 3}, /Event/Charm/Phys/D2hhh_KPPLine/Particles: {0: 2, 1: 1}, /Event/Charm/Phys/D2hhh_KPPLine/ReFitPvs_Charm_PVs: {1: 1}, /Event/Charm/Phys/D2hhh_KPPLine/decayVertices: {1: 1}, /Event/Charm/Phys/D2hhh_PPPLine/Particles: {0: 3}, /Event/Charm/Phys/DForPromptCharm/Particles: {0: 3}, /Event/Charm/Phys/DiCharmForPromptCharm/Particles: {0: 5}, /Event/Charm/Phys/DsForPromptCharm/Particles: {0: 5}, /Event/Charm/Phys/DstarD02KMuNuPrescaledRSLine/Particles: {1: 1}, /Event/Charm/Phys/DstarD02KMuNuPrescaledRSLine/ReFitPvs_Charm_PVs: {1: 1}, /Event/Charm/Phys/DstarD02KMuNuPrescaledRSLine/decayVertices: {1: 1}, /Event/Charm/Phys/DstarForPromptCharm/Particles: {0: 2}, /Event/Charm/Phys/DstarPromptWithD02HHHHLine/Particles: {0: 4, 1: 1}, /Event/Charm/Phys/DstarPromptWithD02HHHHLine/ReFitPvs_Charm_PVs: {1: 1}, /Event/Charm/Phys/DstarPromptWithD02HHHHLine/decayVertices: {1: 1}, /Event/Charm/Phys/DstarPromptWithD02HHHHNoPIDLine/Particles: {0: 1}, /Event/Charm/Phys/KaonsForDstarD02KMuNuPrescaled/Particles: {1: 1}, /Event/Charm/Phys/LambdaCForPromptCharm/Particles: {0: 5}, /Event/Charm/Phys/MuonsForDstarD02KMuNuPrescaled/Particles: {1: 1}, /Event/Charm/Phys/PionsForDstarD02KMuNuPrescaled/Particles: {1: 1}, /Event/Charm/Phys/SelBasicMesonsForPromptCharm/Particles: {2: 1}, /Event/Charm/Phys/StdAllLooseKaons/Particles: {1: 2}, /Event/Charm/Phys/StdAllLoosePions/Particles: {2: 1, 3: 1}, /Event/Charm/Phys/StdAllNoPIDsKaons/Particles: {1: 3}, /Event/Charm/Phys/StdAllNoPIDsPions/Particles: {1: 4}, /Event/Charm/Rec/Calo/Electrons: {1: 3}, /Event/Charm/Rec/Calo/Photons: {1: 1, 2: 3, 4: 1}, /Event/Charm/Rec/Muon/MuonPID: {2: 3, 4: 1, 8: 1}, /Event/Charm/Rec/ProtoP/Charged: {2: 3, 4: 1, 8: 1}, /Event/Charm/Rec/Rich/PIDs: {2: 3, 4: 1, 8: 1}, /Event/Charm/Rec/Track/Best: {2: 3, 4: 1, 8: 1}, /Event/Charm/Rec/Vertex/Primary: {1: 1, 2: 1, 3: 2, 4: 1}, /Event/Charm/Rec/Vertex/Weights: {1: 1, 2: 1, 3: 2, 4: 1}}
TESFingerPrint      DEBUG Finalize base class GaudiAlgorithm
TESFingerPrint      DEBUG Tools to release :
TESFingerPrint      DEBUG Services to release :
InputCopyStream      INFO Events output: 5
FSRInputCopyStream   INFO Set up File Summary Record
FSRInputCopyStream   INFO Events output: 1
EventLoopMgr         INFO Histograms converted successfully according to request.
DataOnDemandSvc      INFO Handled "DataFault" incidents: 0/0/5(Alg/Node/Total).
ToolSvc              INFO Removing all tools created by ToolSvc
RootCnvSvc           INFO Disconnected data IO:6AA84BBC-D7CD-E811-9B3D-02163E01BA24 [Reco12-Stripping17.mdst]
RootCnvSvc           INFO Disconnected data IO:AC2B9F1D-38F1-E011-94B0-E0CB4E29C4DE [root://eoslhcb.cern.ch//eos/lhcb/grid/prod/lhcb/swtest/lhcb/LHCb/Collision11/CHARM.MDST/00012547/0000/00012547_00000013_1.charm.mdst]
ApplicationMgr       INFO Application Manager Finalized successfully
ApplicationMgr       INFO Application Manager Terminated successfully
